,0,1,2,3
0,2.46895793773e-06,-3.00490244475e-06,-4.19440577159e-06,2418.607
1,2.46895793758e-06,-3.00490245671e-06,-4.19440580408e-06,2418.637
2,2.46895793758e-06,-3.00490245671e-06,-4.19440580408e-06,2418.647
3,2.46895793758e-06,-3.00490245671e-06,-4.19440580408e-06,2418.657
4,2.46895793758e-06,-3.00490245671e-06,-4.19440580408e-06,2418.667
5,2.46895793758e-06,-3.00490245671e-06,-4.19440580408e-06,2418.677
6,2.46895793736e-06,-3.00490247264e-06,-4.19440584739e-06,2418.687
7,2.46895793736e-06,-3.00490247264e-06,-4.19440584739e-06,2418.697
8,2.46895793736e-06,-3.00490247264e-06,-4.19440584739e-06,2418.707
9,2.46895793736e-06,-3.00490247264e-06,-4.19440584739e-06,2418.717
10,2.4689579371e-06,-3.00490249258e-06,-4.1944059016e-06,2418.727
11,2.4689579371e-06,-3.00490249258e-06,-4.1944059016e-06,2418.737
12,2.4689579371e-06,-3.00490249258e-06,-4.1944059016e-06,2418.747
13,2.4689579371e-06,-3.00490249258e-06,-4.1944059016e-06,2418.757
14,2.4689579371e-06,-3.00490249258e-06,-4.1944059016e-06,2418.767
15,2.46895793682e-06,-3.00490251251e-06,-4.19440595577e-06,2418.777
16,2.46895793676e-06,-3.0049025165e-06,-4.1944059666e-06,2418.787
17,2.46895793676e-06,-3.0049025165e-06,-4.1944059666e-06,2418.797
18,2.46895793676e-06,-3.0049025165e-06,-4.1944059666e-06,2418.807
19,2.46895793676e-06,-3.0049025165e-06,-4.1944059666e-06,2418.817
20,2.46895793676e-06,-3.0049025165e-06,-4.1944059666e-06,2418.827
21,0.00574234771407,0.000373018961803,0.00428772064303,2418.837
22,0.00574234771407,0.000373018961803,0.00428772064303,2418.847
23,0.00574234771407,0.000373018961803,0.00428772064303,2418.857
24,0.00574234771407,0.000373018961803,0.00428772064303,2418.867
25,0.0187572519779,0.000846302412979,0.0550236634012,2418.877
26,0.0187572519779,0.000846302412979,0.0550236634012,2418.887
27,0.0187572519779,0.000846302412979,0.0550236634012,2418.897
28,0.0187572519779,0.000846302412979,0.0550236634012,2418.907
29,0.0187572519779,0.000846302412979,0.0550236634012,2418.917
30,0.0373314574822,0.00278794647924,0.140273321839,2418.927
31,0.0373314574822,0.00278794647924,0.140273321839,2418.937
32,0.0373314574822,0.00278794647924,0.140273321839,2418.947
33,0.0373314574822,0.00278794647924,0.140273321839,2418.957
34,0.0597752516477,0.00745468426677,0.246384313224,2418.967
35,0.0644042497133,0.0086751375491,0.268585992296,2418.977
36,0.0644042497133,0.0086751375491,0.268585992296,2418.987
37,0.0644042497133,0.0086751375491,0.268585992296,2418.997
38,0.0644042497133,0.0086751375491,0.268585992296,2419.007
39,0.0826782603715,0.0148167842894,0.358005189401,2419.017
40,0.0826782603715,0.0148167842894,0.358005189401,2419.027
41,0.0826782603715,0.0148167842894,0.358005189401,2419.037
42,0.0826782603715,0.0148167842894,0.358005189401,2419.047
43,0.0826782603715,0.0148167842894,0.358005189401,2419.057
44,0.100261525152,0.0228891732238,0.448638283954,2419.067
45,0.100261525152,0.0228891732238,0.448638283954,2419.077
46,0.100261525152,0.0228891732238,0.448638283954,2419.087
47,0.100261525152,0.0228891732238,0.448638283954,2419.097
48,0.100261525152,0.0228891732238,0.448638283954,2419.107
49,0.121015023211,0.0349319275298,0.561738215679,2419.117
50,0.121015023211,0.0349319275298,0.561738215679,2419.127
51,0.121015023211,0.0349319275298,0.561738215679,2419.137
52,0.121015023211,0.0349319275298,0.561738215679,2419.147
53,0.140645084041,0.0495150052833,0.675630270518,2419.157
54,0.144301385436,0.0526967260362,0.698396479668,2419.167
55,0.144301385436,0.0526967260362,0.698396479668,2419.177
56,0.144301385436,0.0526967260362,0.698396479668,2419.187
57,0.144301385436,0.0526967260362,0.698396479668,2419.197
58,0.144301385436,0.0526967260362,0.698396479668,2419.207
59,0.158356792278,0.066115558084,0.789413454799,2419.217
60,0.158356792278,0.066115558084,0.789413454799,2419.227
61,0.158356792278,0.066115558084,0.789413454799,2419.237
62,0.158356792278,0.066115558084,0.789413454799,2419.247
63,0.171017961958,0.0808065005976,0.880703329275,2419.257
64,0.171017961958,0.0808065005976,0.880703329275,2419.267
65,0.171017961958,0.0808065005976,0.880703329275,2419.277
66,0.171017961958,0.0808065005976,0.880703329275,2419.287
67,0.171017961958,0.0808065005976,0.880703329275,2419.297
68,0.18487737801,0.100340898643,0.993372289364,2419.307
69,0.18487737801,0.100340898643,0.993372289364,2419.317
70,0.18487737801,0.100340898643,0.993372289364,2419.327
71,0.18487737801,0.100340898643,0.993372289364,2419.337
72,0.19647093401,0.121682283489,1.10733153678,2419.347
73,0.198361008202,0.126025782679,1.1299316167,2419.357
74,0.198361008202,0.126025782679,1.1299316167,2419.367
75,0.198361008202,0.126025782679,1.1299316167,2419.377
76,0.198361008202,0.126025782679,1.1299316167,2419.387
77,0.205789334965,0.144140997972,1.2215884761,2419.397
78,0.205789334965,0.144140997972,1.2215884761,2419.407
79,0.205789334965,0.144140997972,1.2215884761,2419.417
80,0.205789334965,0.144140997972,1.2215884761,2419.427
81,0.205789334965,0.144140997972,1.2215884761,2419.437
82,0.210862223881,0.162916211969,1.31294465361,2419.447
83,0.210862223881,0.162916211969,1.31294465361,2419.457
84,0.210862223881,0.162916211969,1.31294465361,2419.467
85,0.210862223881,0.162916211969,1.31294465361,2419.477
86,0.210862223881,0.162916211969,1.31294465361,2419.487
87,0.215286357772,0.186893066555,1.42753059064,2419.497
88,0.215286357772,0.186893066555,1.42753059064,2419.507
89,0.215286357772,0.186893066555,1.42753059064,2419.517
90,0.215286357772,0.186893066555,1.42753059064,2419.527
91,0.216864842647,0.211263581701,1.54158784408,2419.537
92,0.216871211062,0.216098460941,1.56429164895,2419.547
93,0.216871211062,0.216098460941,1.56429164895,2419.557
94,0.216871211062,0.216098460941,1.56429164895,2419.567
95,0.216871211062,0.216098460941,1.56429164895,2419.577
96,0.216871211062,0.216098460941,1.56429164895,2419.587
97,0.215577640313,0.23527976205,1.65488252413,2419.597
98,0.215577640313,0.23527976205,1.65488252413,2419.607
99,0.215577640313,0.23527976205,1.65488252413,2419.617
100,0.215577640313,0.23527976205,1.65488252413,2419.627
101,0.212709081896,0.254478489012,1.74589278964,2419.637
102,0.212709081896,0.254478489012,1.74589278964,2419.647
103,0.212709081896,0.254478489012,1.74589278964,2419.657
104,0.212709081896,0.254478489012,1.74589278964,2419.667
105,0.207901786355,0.273312737223,1.83759412872,2419.677
106,0.207901786355,0.273312737223,1.83759412872,2419.687
107,0.207901786355,0.273312737223,1.83759412872,2419.707
108,0.207901786355,0.273312737223,1.83759412872,2419.707
109,0.199784509159,0.296187880006,1.95151272057,2419.717
110,0.199784509159,0.296187880006,1.95151272057,2419.727
111,0.199784509159,0.296187880006,1.95151272057,2419.737
112,0.199784509159,0.296187880006,1.95151272057,2419.747
113,0.199784509159,0.296187880006,1.95151272057,2419.757
114,0.189165425813,0.317893533257,2.06523798047,2419.767
115,0.186592418244,0.321931877984,2.08787341419,2419.777
116,0.186592418244,0.321931877984,2.08787341419,2419.787
117,0.186592418244,0.321931877984,2.08787341419,2419.797
118,0.186592418244,0.321931877984,2.08787341419,2419.807
119,0.176024213078,0.338079934166,2.17878763106,2419.817
120,0.176024213078,0.338079934166,2.17878763106,2419.827
121,0.176024213078,0.338079934166,2.17878763106,2419.837
122,0.176024213078,0.338079934166,2.17878763106,2419.847
123,0.176024213078,0.338079934166,2.17878763106,2419.857
124,0.164019119921,0.353461907423,2.26994853037,2419.867
125,0.164019119921,0.353461907423,2.26994853037,2419.877
126,0.164019119921,0.353461907423,2.26994853037,2419.887
127,0.164019119921,0.353461907423,2.26994853037,2419.897
128,0.150639900866,0.366979633862,2.3600746794,2419.917
129,0.150639900866,0.366979633862,2.3600746794,2419.917
130,0.150639900866,0.366979633862,2.3600746794,2419.927
131,0.150639900866,0.366979633862,2.3600746794,2419.937
132,0.150639900866,0.366979633862,2.3600746794,2419.947
133,0.132132781666,0.382422838569,2.4732721176,2419.957
134,0.132132781666,0.382422838569,2.4732721176,2419.967
135,0.132132781666,0.382422838569,2.4732721176,2419.977
136,0.132132781666,0.382422838569,2.4732721176,2419.987
137,0.112089561132,0.39594305186,2.58704056427,2419.997
138,0.107885915499,0.398373197355,2.60985143264,2420.007
139,0.107885915499,0.398373197355,2.60985143264,2420.017
140,0.107885915499,0.398373197355,2.60985143264,2420.027
141,0.107885915499,0.398373197355,2.60985143264,2420.037
142,0.107885915499,0.398373197355,2.60985143264,2420.047
143,0.0905532939571,0.406982866749,2.70080588685,2420.057
144,0.0905532939571,0.406982866749,2.70080588685,2420.067
145,0.0905532939571,0.406982866749,2.70080588685,2420.077
146,0.0905532939571,0.406982866749,2.70080588685,2420.087
147,0.072681205345,0.414263539199,2.79157819695,2420.097
148,0.072681205345,0.414263539199,2.79157819695,2420.107
149,0.072681205345,0.414263539199,2.79157819695,2420.117
150,0.072681205345,0.414263539199,2.79157819695,2420.127
151,0.0494401550226,0.420780576775,2.90549011975,2420.137
152,0.0494401550226,0.420780576775,2.90549011975,2420.147
153,0.0494401550226,0.420780576775,2.90549011975,2420.157
154,0.0494401550226,0.420780576775,2.90549011975,2420.167
155,0.0494401550226,0.420780576775,2.90549011975,2420.177
156,0.0259168169425,0.424417869488,3.0181914465,2420.187
157,0.0211212398955,0.424843040018,3.04072730566,2420.197
158,0.0211212398955,0.424843040018,3.04072730566,2420.207
159,0.0211212398955,0.424843040018,3.04072730566,2420.217
160,0.0211212398955,0.424843040018,3.04072730566,2420.237
161,0.00166951228287,0.425573653443,3.13181690136,2420.247
162,0.00166951228287,0.425573653443,3.13181690136,2420.247
163,0.00166951228287,0.425573653443,3.13181690136,2420.257
164,0.00166951228287,0.425573653443,3.13181690136,2420.267
165,0.00166951228287,0.425573653443,3.13181690136,2420.277
166,-0.017454120218,0.424464832819,-3.06092119143,2420.287
167,-0.017454120218,0.424464832819,-3.06092119143,2420.297
168,-0.017454120218,0.424464832819,-3.06092119143,2420.307
169,-0.0413392545067,0.420568312536,-2.94709571923,2420.327
170,-0.0413392545067,0.420568312536,-2.94709571923,2420.337
171,-0.0413392545067,0.420568312536,-2.94709571923,2420.357
172,-0.0413392545067,0.420568312536,-2.94709571923,2420.367
173,-0.0413392545067,0.420568312536,-2.94709571923,2420.367
174,-0.0647287742938,0.41415963082,-2.83325507937,2420.377
175,-0.0694335527646,0.412494230148,-2.81027647058,2420.387
176,-0.0694335527646,0.412494230148,-2.81027647058,2420.407
177,-0.0694335527646,0.412494230148,-2.81027647058,2420.417
178,-0.0694335527646,0.412494230148,-2.81027647058,2420.427
179,-0.0916477352203,0.402754949667,-2.69625555837,2420.447
180,-0.0916477352203,0.402754949667,-2.69625555837,2420.467
181,-0.0916477352203,0.402754949667,-2.69625555837,2420.477
182,-0.108439406564,0.393211011001,-2.6051325599,2420.477
183,-0.112515338395,0.390614274662,-2.58244824027,2420.487
184,-0.116677594326,0.387924564605,-2.55950614728,2420.507
185,-0.116677594326,0.387924564605,-2.55950614728,2420.517
186,-0.116677594326,0.387924564605,-2.55950614728,2420.527
187,-0.116677594326,0.387924564605,-2.55950614728,2420.527
188,-0.131987326775,0.376172791989,-2.46819040639,2420.537
189,-0.131987326775,0.376172791989,-2.46819040639,2420.547
190,-0.131987326775,0.376172791989,-2.46819040639,2420.557
191,-0.131987326775,0.376172791989,-2.46819040639,2420.567
192,-0.131987326775,0.376172791989,-2.46819040639,2420.577
193,-0.146296618304,0.363285637403,-2.37779320745,2420.597
194,-0.162380136999,0.34535975698,-2.26433760903,2420.637
195,-0.162380136999,0.34535975698,-2.26433760903,2420.657
196,-0.162380136999,0.34535975698,-2.26433760903,2420.667
197,-0.167620597997,0.338029646728,-2.17854674448,2420.667
198,-0.162538028245,0.345419616042,-2.16649267179,2420.677
199,-0.1568983422,0.353891487345,-2.15847382301,2420.687
200,-0.1568983422,0.353891487345,-2.15847382301,2420.697
201,-0.1568983422,0.353891487345,-2.15847382301,2420.707
202,-0.1568983422,0.353891487345,-2.15847382301,2420.717
203,-0.134183053608,0.388264513467,-2.15229814153,2420.727
204,-0.134183053608,0.388264513467,-2.15229814153,2420.737
205,-0.134183053608,0.388264513467,-2.15229814153,2420.747
206,-0.134183053608,0.388264513467,-2.15229814153,2420.757
207,-0.134183053608,0.388264513467,-2.15229814153,2420.767
208,-0.111460297068,0.422281003345,-2.16789973994,2420.777
209,-0.111460297068,0.422281003345,-2.16789973994,2420.787
210,-0.111460297068,0.422281003345,-2.16789973994,2420.797
211,-0.111460297068,0.422281003345,-2.16789973994,2420.807
212,-0.0879744404191,0.45633620572,-2.18825680231,2420.817
213,-0.0879744404191,0.45633620572,-2.18825680231,2420.827
214,-0.0879744404191,0.45633620572,-2.18825680231,2420.837
215,-0.0879744404191,0.45633620572,-2.18825680231,2420.847
216,-0.0575012962483,0.497654051085,-2.21756461104,2420.857
217,-0.0575012962483,0.497654051085,-2.21756461104,2420.867
218,-0.0575012962483,0.497654051085,-2.21756461104,2420.877
219,-0.0575012962483,0.497654051085,-2.21756461104,2420.897
220,-0.0259225326911,0.538092203003,-2.24892097498,2420.907
221,-0.0259225326911,0.538092203003,-2.24892097498,2420.907
222,-0.0194248490476,0.546077666509,-2.25553428056,2420.917
223,-0.0194248490476,0.546077666509,-2.25553428056,2420.927
224,-0.0194248490476,0.546077666509,-2.25553428056,2420.937
225,-0.0194248490476,0.546077666509,-2.25553428056,2420.947
226,-0.0194248490476,0.546077666509,-2.25553428056,2420.957
227,0.0068046265862,0.577401933463,-2.28364988319,2420.967
228,0.0068046265862,0.577401933463,-2.28364988319,2420.977
229,0.0068046265862,0.577401933463,-2.28364988319,2420.987
230,0.0068046265862,0.577401933463,-2.28364988319,2420.997
231,0.0402105680229,0.615924859829,-2.32025819547,2421.007
232,0.0402105680229,0.615924859829,-2.32025819547,2421.027
233,0.0402105680229,0.615924859829,-2.32025819547,2421.047
234,0.0699364087378,0.657785603084,-2.3494944794,2421.057
235,0.0699364087378,0.657785603084,-2.3494944794,2421.057
236,0.0765636243321,0.664724005382,-2.35558735118,2421.067
237,0.0765636243321,0.664724005382,-2.35558735118,2421.077
238,0.0765636243321,0.664724005382,-2.35558735118,2421.087
239,0.102621259497,0.689694814534,-2.38428098679,2421.117
240,0.102621259497,0.689694814534,-2.38428098679,2421.127
241,0.102621259497,0.689694814534,-2.38428098679,2421.137
242,0.128147427105,0.713242456001,-2.41610410085,2421.147
243,0.128147427105,0.713242456001,-2.41610410085,2421.167
244,0.128147427105,0.713242456001,-2.41610410085,2421.177
245,0.128147427105,0.713242456001,-2.41610410085,2421.187
246,0.128147427105,0.713242456001,-2.41610410085,2421.187
247,0.152838222321,0.734559083163,-2.44928641198,2421.197
248,0.152838222321,0.734559083163,-2.44928641198,2421.207
249,0.152838222321,0.734559083163,-2.44928641198,2421.217
250,0.152838222321,0.734559083163,-2.44928641198,2421.227
251,0.182124375862,0.757947586317,-2.49196614129,2421.237
252,0.182124375862,0.757947586317,-2.49196614129,2421.247
253,0.182124375862,0.757947586317,-2.49196614129,2421.257
254,0.182124375862,0.757947586317,-2.49196614129,2421.267
255,0.182124375862,0.757947586317,-2.49196614129,2421.277
256,0.214787989966,0.78184621318,-2.54389866743,2421.307
257,0.214787989966,0.78184621318,-2.54389866743,2421.307
258,0.214787989966,0.78184621318,-2.54389866743,2421.317
259,0.214787989966,0.78184621318,-2.54389866743,2421.317
260,0.214787989966,0.78184621318,-2.54389866743,2421.327
261,0.214787989966,0.78184621318,-2.54389866743,2421.337
262,0.234131404431,0.794891185474,-2.57935493667,2421.347
263,0.234131404431,0.794891185474,-2.57935493667,2421.357
264,0.234131404431,0.794891185474,-2.57935493667,2421.367
265,0.234131404431,0.794891185474,-2.57935493667,2421.377
266,0.256547569992,0.808547550814,-2.62456401451,2421.397
267,0.256547569992,0.808547550814,-2.62456401451,2421.407
268,0.256547569992,0.808547550814,-2.62456401451,2421.417
269,0.256547569992,0.808547550814,-2.62456401451,2421.417
270,0.272803455622,0.817694892942,-2.66104661915,2421.427
271,0.280240748428,0.821510465755,-2.67938290873,2421.447
272,0.280240748428,0.821510465755,-2.67938290873,2421.457
273,0.280240748428,0.821510465755,-2.67938290873,2421.467
274,0.280240748428,0.821510465755,-2.67938290873,2421.477
275,0.292496683142,0.827437465381,-2.71624431389,2421.487
276,0.292496683142,0.827437465381,-2.71624431389,2421.517
277,0.292496683142,0.827437465381,-2.71624431389,2421.527
278,0.30348671326,0.832342340386,-2.75297423399,2421.547
279,0.30348671326,0.832342340386,-2.75297423399,2421.547
280,0.30348671326,0.832342340386,-2.75297423399,2421.557
281,0.30348671326,0.832342340386,-2.75297423399,2421.567
282,0.315022533544,0.836756806662,-2.79833689759,2421.577
283,0.315022533544,0.836756806662,-2.79833689759,2421.587
284,0.315022533544,0.836756806662,-2.79833689759,2421.607
285,0.322489511133,0.839170028871,-2.84276462166,2421.627
286,0.323822361314,0.839576587795,-2.85145130467,2421.637
287,0.323822361314,0.839576587795,-2.85145130467,2421.657
288,0.323822361314,0.839576587795,-2.85145130467,2421.657
289,0.323822361314,0.839576587795,-2.85145130467,2421.667
290,0.323822361314,0.839576587795,-2.85145130467,2421.667
291,0.326415341445,0.840411149122,-2.88574258178,2421.677
292,0.326415341445,0.840411149122,-2.88574258178,2421.687
293,0.326415341445,0.840411149122,-2.88574258178,2421.687
294,0.326415341445,0.840411149122,-2.88574258178,2421.697
295,0.326415341445,0.840411149122,-2.88574258178,2421.707
296,0.326415341445,0.840411149122,-2.88574258178,2421.717
297,0.327405670173,0.840701278157,-2.91876165803,2421.727
298,0.327405670173,0.840701278157,-2.91876165803,2421.747
299,0.327405670173,0.840701278157,-2.91876165803,2421.757
300,0.326665462526,0.840465920425,-2.95906164885,2421.777
301,0.326665462526,0.840465920425,-2.95906164885,2421.787
302,0.326665462526,0.840465920425,-2.95906164885,2421.797
303,0.323174790268,0.840012861973,-2.99775161463,2421.817
304,0.322238119914,0.840062948404,-3.00527037292,2421.827
305,0.322238119914,0.840062948404,-3.00527037292,2421.837
306,0.322238119914,0.840062948404,-3.00527037292,2421.847
307,0.316029061872,0.839373950888,-3.03416718766,2421.867
308,0.316029061872,0.839373950888,-3.03416718766,2421.877
309,0.316029061872,0.839373950888,-3.03416718766,2421.897
310,0.316029061872,0.839373950888,-3.03416718766,2421.907
311,0.308567557226,0.838663696221,-3.0621291188,2421.917
312,0.308567557226,0.838663696221,-3.0621291188,2421.927
313,0.308567557226,0.838663696221,-3.0621291188,2421.937
314,0.308567557226,0.838663696221,-3.0621291188,2421.947
315,0.299986599772,0.837959012359,-3.08935404623,2421.957
316,0.299986599772,0.837959012359,-3.08935404623,2421.967
317,0.299986599772,0.837959012359,-3.08935404623,2421.977
318,0.299986599772,0.837959012359,-3.08935404623,2421.987
319,0.287268845547,0.837416670187,-3.12202541097,2422.007
320,0.287268845547,0.837416670187,-3.12202541097,2422.017
321,0.287268845547,0.837416670187,-3.12202541097,2422.027
322,0.287268845547,0.837416670187,-3.12202541097,2422.037
323,0.272639564041,0.837171745704,3.1300534759,2422.047
324,0.269549942656,0.837244274689,3.12399013583,2422.057
325,0.269549942656,0.837244274689,3.12399013583,2422.067
326,0.269549942656,0.837244274689,3.12399013583,2422.087
327,0.269549942656,0.837244274689,3.12399013583,2422.097
328,0.25529578144,0.837486208195,3.10099169781,2422.107
329,0.25529578144,0.837486208195,3.10099169781,2422.117
330,0.25529578144,0.837486208195,3.10099169781,2422.127
331,0.25529578144,0.837486208195,3.10099169781,2422.137
332,0.240501915857,0.838204833892,3.0786737552,2422.147
333,0.240501915857,0.838204833892,3.0786737552,2422.157
334,0.240501915857,0.838204833892,3.0786737552,2422.167
335,0.240501915857,0.838204833892,3.0786737552,2422.177
336,0.240501915857,0.838204833892,3.0786737552,2422.177
337,0.240501915857,0.838204833892,3.0786737552,2422.187
338,0.220881480371,0.83953716412,3.05196997338,2422.197
339,0.220881480371,0.83953716412,3.05196997338,2422.207
340,0.220881480371,0.83953716412,3.05196997338,2422.217
341,0.220881480371,0.83953716412,3.05196997338,2422.227
342,0.199775942549,0.841675318569,3.02705315355,2422.237
343,0.195420913847,0.842231505884,3.02225666466,2422.247
344,0.195420913847,0.842231505884,3.02225666466,2422.257
345,0.195420913847,0.842231505884,3.02225666466,2422.267
346,0.177079148198,0.844444975751,3.00386147945,2422.287
347,0.177079148198,0.844444975751,3.00386147945,2422.307
348,0.177079148198,0.844444975751,3.00386147945,2422.317
349,0.157751948007,0.847072233911,2.9866770782,2422.327
350,0.157751948007,0.847072233911,2.9866770782,2422.337
351,0.157751948007,0.847072233911,2.9866770782,2422.347
352,0.157751948007,0.847072233911,2.9866770782,2422.357
353,0.157751948007,0.847072233911,2.9866770782,2422.357
354,0.157751948007,0.847072233911,2.9866770782,2422.367
355,0.137937337052,0.850092829885,2.97023577099,2422.377
356,0.137937337052,0.850092829885,2.97023577099,2422.387
357,0.137937337052,0.850092829885,2.97023577099,2422.387
358,0.137937337052,0.850092829885,2.97023577099,2422.397
359,0.137937337052,0.850092829885,2.97023577099,2422.407
360,0.137937337052,0.850092829885,2.97023577099,2422.417
361,0.112293219934,0.854689876633,2.95101504988,2422.427
362,0.112293219934,0.854689876633,2.95101504988,2422.437
363,0.112293219934,0.854689876633,2.95101504988,2422.447
364,0.112293219934,0.854689876633,2.95101504988,2422.457
365,0.0857823363706,0.860054658073,2.93299633668,2422.467
366,0.0804135178877,0.861124843188,2.92950780102,2422.477
367,0.0804135178877,0.861124843188,2.92950780102,2422.487
368,0.0804135178877,0.861124843188,2.92950780102,2422.497
369,0.0804135178877,0.861124843188,2.92950780102,2422.507
370,0.0804135178877,0.861124843188,2.92950780102,2422.517
371,0.0583669491633,0.86577623461,2.91591094393,2422.527
372,0.0583669491633,0.86577623461,2.91591094393,2422.537
373,0.0583669491633,0.86577623461,2.91591094393,2422.547
374,0.0583669491633,0.86577623461,2.91591094393,2422.557
375,0.035943098577,0.871118634356,2.90337051288,2422.577
376,0.035943098577,0.871118634356,2.90337051288,2422.577
377,0.035943098577,0.871118634356,2.90337051288,2422.587
378,0.035943098577,0.871118634356,2.90337051288,2422.597
379,0.035943098577,0.871118634356,2.90337051288,2422.607
380,0.00748397323912,0.878153192557,2.88882466316,2422.617
381,0.00748397323912,0.878153192557,2.88882466316,2422.627
382,0.00748397323912,0.878153192557,2.88882466316,2422.637
383,0.00748397323912,0.878153192557,2.88882466316,2422.647
384,-0.0217663441297,0.885725518101,2.87501467804,2422.657
385,-0.027618006159,0.887338952605,2.87236147499,2422.667
386,-0.027618006159,0.887338952605,2.87236147499,2422.677
387,-0.027618006159,0.887338952605,2.87236147499,2422.687
388,-0.027618006159,0.887338952605,2.87236147499,2422.697
389,-0.027618006159,0.887338952605,2.87236147499,2422.707
390,-0.0514172081975,0.894079593274,2.86218246739,2422.717
391,-0.0514172081975,0.894079593274,2.86218246739,2422.727
392,-0.0514172081975,0.894079593274,2.86218246739,2422.737
393,-0.08124535392,0.902850082264,2.85058425851,2422.757
394,-0.08124535392,0.902850082264,2.85058425851,2422.767
395,-0.08124535392,0.902850082264,2.85058425851,2422.777
396,-0.08124535392,0.902850082264,2.85058425851,2422.777
397,-0.08124535392,0.902850082264,2.85058425851,2422.787
398,-0.08124535392,0.902850082264,2.85058425851,2422.797
399,-0.11147847533,0.912101130682,2.83978756609,2422.807
400,-0.117537109631,0.913975452419,2.83769148599,2422.817
401,-0.117537109631,0.913975452419,2.83769148599,2422.827
402,-0.117537109631,0.913975452419,2.83769148599,2422.837
403,-0.117537109631,0.913975452419,2.83769148599,2422.847
404,-0.13597433039,0.919744884247,2.83167546192,2422.857
405,-0.13597433039,0.919744884247,2.83167546192,2422.867
406,-0.13597433039,0.919744884247,2.83167546192,2422.877
407,-0.13597433039,0.919744884247,2.83167546192,2422.887
408,-0.166648611253,0.92971672961,2.82221710428,2422.907
409,-0.166648611253,0.92971672961,2.82221710428,2422.907
410,-0.166648611253,0.92971672961,2.82221710428,2422.917
411,-0.166648611253,0.92971672961,2.82221710428,2422.927
412,-0.166648611253,0.92971672961,2.82221710428,2422.937
413,-0.197425930717,0.940091367293,2.81327701538,2422.947
414,-0.203615390031,0.942171145791,2.81149327192,2422.957
415,-0.203615390031,0.942171145791,2.81149327192,2422.967
416,-0.203615390031,0.942171145791,2.81149327192,2422.977
417,-0.203615390031,0.942171145791,2.81149327192,2422.987
418,-0.203615390031,0.942171145791,2.81149327192,2422.997
419,-0.228473606031,0.950765484503,2.80484545305,2423.007
420,-0.228473606031,0.950765484503,2.80484545305,2423.017
421,-0.228473606031,0.950765484503,2.80484545305,2423.037
422,-0.253383689946,0.959565263141,2.79843680807,2423.047
423,-0.253383689946,0.959565263141,2.79843680807,2423.067
424,-0.253383689946,0.959565263141,2.79843680807,2423.077
425,-0.278448315783,0.968563767578,2.79239438861,2423.097
426,-0.278448315783,0.968563767578,2.79239438861,2423.107
427,-0.278448315783,0.968563767578,2.79239438861,2423.127
428,-0.309794413321,0.98008703718,2.78525677631,2423.137
429,-0.309794413321,0.98008703718,2.78525677631,2423.147
430,-0.309794413321,0.98008703718,2.78525677631,2423.157
431,-0.309794413321,0.98008703718,2.78525677631,2423.157
432,-0.309794413321,0.98008703718,2.78525677631,2423.167
433,-0.341307710416,0.991884042525,2.778449574,2423.177
434,-0.341307710416,0.991884042525,2.778449574,2423.187
435,-0.341307710416,0.991884042525,2.778449574,2423.197
436,-0.341307710416,0.991884042525,2.778449574,2423.207
437,-0.341307710416,0.991884042525,2.778449574,2423.217
438,-0.372947027768,1.00395577451,2.77227651871,2423.227
439,-0.379250377661,1.00640710465,2.7710680803,2423.237
440,-0.379250377661,1.00640710465,2.7710680803,2423.247
441,-0.379250377661,1.00640710465,2.7710680803,2423.257
442,-0.379250377661,1.00640710465,2.7710680803,2423.267
443,-0.404636400873,1.01635062124,2.76667362453,2423.297
444,-0.404636400873,1.01635062124,2.76667362453,2423.307
445,-0.404636400873,1.01635062124,2.76667362453,2423.317
446,-0.429978944708,1.02638535425,2.76226111318,2423.337
447,-0.429978944708,1.02638535425,2.76226111318,2423.347
448,-0.429978944708,1.02638535425,2.76226111318,2423.357
449,-0.461606452045,1.03909323272,2.75686786786,2423.387
450,-0.493297615958,1.05197024508,2.75172600084,2423.437
451,-0.525081885793,1.06515809111,2.74696472442,2423.467
452,-0.53146862725,1.06781879115,2.74611506147,2423.497
453,-0.53146862725,1.06781879115,2.74611506147,2423.507
454,-0.614041581501,1.10275346089,2.734992703,2423.617
455,-0.614041581501,1.10275346089,2.734992703,2423.637
456,-0.614041581501,1.10275346089,2.734992703,2423.647
457,-0.645717210476,1.11647000013,2.73071844279,2423.657
458,-0.65205178081,1.1192081416,2.7298179735,2423.667
459,-0.65205178081,1.1192081416,2.7298179735,2423.677
460,-0.65205178081,1.1192081416,2.7298179735,2423.687
461,-0.65205178081,1.1192081416,2.7298179735,2423.697
462,-0.65205178081,1.1192081416,2.7298179735,2423.707
463,-0.67712830978,1.13025931293,2.72651359557,2423.717
464,-0.67712830978,1.13025931293,2.72651359557,2423.727
465,-0.67712830978,1.13025931293,2.72651359557,2423.737
466,-0.67712830978,1.13025931293,2.72651359557,2423.747
467,-0.702261981459,1.14131756774,2.72304314781,2423.757
468,-0.702261981459,1.14131756774,2.72304314781,2423.777
469,-0.702261981459,1.14131756774,2.72304314781,2423.777
470,-0.702261981459,1.14131756774,2.72304314781,2423.787
471,-0.733623481924,1.15531654388,2.71864052636,2423.797
472,-0.733623481924,1.15531654388,2.71864052636,2423.807
473,-0.733623481924,1.15531654388,2.71864052636,2423.827
474,-0.758440451872,1.16666197957,2.71529079221,2423.837
475,-0.764696357349,1.16948955304,2.71442790247,2423.847
476,-0.770908813159,1.17233727057,2.71361153993,2423.857
477,-0.770908813159,1.17233727057,2.71361153993,2423.877
478,-0.770908813159,1.17233727057,2.71361153993,2423.877
479,-0.770908813159,1.17233727057,2.71361153993,2423.887
480,-0.789692948327,1.18091593055,2.71112939505,2423.897
481,-0.789692948327,1.18091593055,2.71112939505,2423.907
482,-0.789692948327,1.18091593055,2.71112939505,2423.917
483,-0.789692948327,1.18091593055,2.71112939505,2423.937
484,-0.82082295802,1.19526211336,2.70701484347,2423.957
485,-0.82082295802,1.19526211336,2.70701484347,2423.967
486,-0.82082295802,1.19526211336,2.70701484347,2423.977
487,-0.851778731886,1.20972629466,2.70253381089,2423.987
488,-0.857945150892,1.21264049599,2.70166953773,2423.997
489,-0.857945150892,1.21264049599,2.70166953773,2424.007
490,-0.857945150892,1.21264049599,2.70166953773,2424.017
491,-0.857945150892,1.21264049599,2.70166953773,2424.027
492,-0.857945150892,1.21264049599,2.70166953773,2424.037
493,-0.882708688218,1.22434122618,2.69838230209,2424.047
494,-0.882708688218,1.22434122618,2.69838230209,2424.057
495,-0.882708688218,1.22434122618,2.69838230209,2424.077
496,-0.90738593052,1.23609244586,2.69502148595,2424.087
497,-0.90738593052,1.23609244586,2.69502148595,2424.097
498,-0.90738593052,1.23609244586,2.69502148595,2424.107
499,-0.90738593052,1.23609244586,2.69502148595,2424.117
500,-0.938148342562,1.25087201957,2.69098539928,2424.127
501,-0.938148342562,1.25087201957,2.69098539928,2424.137
502,-0.938148342562,1.25087201957,2.69098539928,2424.137
503,-0.938148342562,1.25087201957,2.69098539928,2424.157
504,-0.938148342562,1.25087201957,2.69098539928,2424.167
505,-0.968741801444,1.26570586342,2.68664522525,2424.177
506,-0.974839156211,1.26872755574,2.68584183365,2424.187
507,-0.974839156211,1.26872755574,2.68584183365,2424.197
508,-0.974839156211,1.26872755574,2.68584183365,2424.207
509,-0.974839156211,1.26872755574,2.68584183365,2424.217
510,-0.999360316431,1.28080074481,2.68253182858,2424.237
511,-0.999360316431,1.28080074481,2.68253182858,2424.247
512,-0.999360316431,1.28080074481,2.68253182858,2424.247
513,-0.999360316431,1.28080074481,2.68253182858,2424.267
514,-1.02980310529,1.29593057515,2.67826522957,2424.277
515,-1.02980310529,1.29593057515,2.67826522957,2424.287
516,-1.02980310529,1.29593057515,2.67826522957,2424.287
517,-1.02980310529,1.29593057515,2.67826522957,2424.297
518,-1.02980310529,1.29593057515,2.67826522957,2424.307
519,-1.02980310529,1.29593057515,2.67826522957,2424.307
520,-1.02980310529,1.29593057515,2.67826522957,2424.317
521,-1.06017773475,1.3111612845,2.67414691785,2424.327
522,-1.0662345595,1.31422925812,2.67332195306,2424.337
523,-1.0662345595,1.31422925812,2.67332195306,2424.347
524,-1.0662345595,1.31422925812,2.67332195306,2424.357
525,-1.0662345595,1.31422925812,2.67332195306,2424.367
526,-1.09042291787,1.32650519268,2.66989251808,2424.377
527,-1.09042291787,1.32650519268,2.66989251808,2424.387
528,-1.09042291787,1.32650519268,2.66989251808,2424.407
529,-1.09042291787,1.32650519268,2.66989251808,2424.417
530,-1.1145407293,1.33884768904,2.66648418707,2424.427
531,-1.1145407293,1.33884768904,2.66648418707,2424.447
532,-1.1145407293,1.33884768904,2.66648418707,2424.457
533,-1.14465726965,1.35437615848,2.66219207847,2424.467
534,-1.14465726965,1.35437615848,2.66219207847,2424.477
535,-1.14465726965,1.35437615848,2.66219207847,2424.487
536,-1.14465726965,1.35437615848,2.66219207847,2424.497
537,-1.16861784384,1.36690519812,2.65857496271,2424.507
538,-1.17455993248,1.37004731459,2.65771822185,2424.517
539,-1.18055810051,1.37318359996,2.65682793512,2424.527
540,-1.18055810051,1.37318359996,2.65682793512,2424.527
541,-1.18055810051,1.37318359996,2.65682793512,2424.537
542,-1.18055810051,1.37318359996,2.65682793512,2424.547
543,-1.18055810051,1.37318359996,2.65682793512,2424.567
544,-1.20444125763,1.38579864811,2.65346868846,2424.577
545,-1.20444125763,1.38579864811,2.65346868846,2424.587
546,-1.20444125763,1.38579864811,2.65346868846,2424.597
547,-1.20444125763,1.38579864811,2.65346868846,2424.607
548,-1.22823659821,1.39847722599,2.64992908337,2424.617
549,-1.22823659821,1.39847722599,2.64992908337,2424.617
550,-1.22823659821,1.39847722599,2.64992908337,2424.627
551,-1.22823659821,1.39847722599,2.64992908337,2424.647
552,-1.25778096507,1.41442224356,2.6455888706,2424.657
553,-1.25778096507,1.41442224356,2.6455888706,2424.667
554,-1.25778096507,1.41442224356,2.6455888706,2424.667
555,-1.25778096507,1.41442224356,2.6455888706,2424.677
556,-1.25778096507,1.41442224356,2.6455888706,2424.677
557,-1.25778096507,1.41442224356,2.6455888706,2424.687
558,-1.25778096507,1.41442224356,2.6455888706,2424.697
559,-1.28728196121,1.43045616201,2.64107133849,2424.707
560,-1.29317387127,1.433663309,2.64015932954,2424.717
561,-1.29317387127,1.433663309,2.64015932954,2424.727
562,-1.29317387127,1.433663309,2.64015932954,2424.737
563,-1.29317387127,1.433663309,2.64015932954,2424.747
564,-1.31665196766,1.44655238472,2.63646150203,2424.757
565,-1.31665196766,1.44655238472,2.63646150203,2424.767
566,-1.31665196766,1.44655238472,2.63646150203,2424.777
567,-1.31665196766,1.44655238472,2.63646150203,2424.787
568,-1.31665196766,1.44655238472,2.63646150203,2424.797
569,-1.34011184906,1.4595381412,2.63282496299,2424.817
570,-1.34011184906,1.4595381412,2.63282496299,2424.837
571,-1.3692398004,1.4759021885,2.62816579463,2424.847
572,-1.3692398004,1.4759021885,2.62816579463,2424.877
573,-1.3692398004,1.4759021885,2.62816579463,2424.887
574,-1.39837484042,1.49238346471,2.62354072896,2424.897
575,-1.4041561136,1.49569226853,2.62266238318,2424.907
576,-1.4041561136,1.49569226853,2.62266238318,2424.917
577,-1.4041561136,1.49569226853,2.62266238318,2424.927
578,-1.4041561136,1.49569226853,2.62266238318,2424.937
579,-1.4041561136,1.49569226853,2.62266238318,2424.947
580,-1.42737628759,1.50899209721,2.61892867764,2424.957
581,-1.42737628759,1.50899209721,2.61892867764,2424.967
582,-1.42737628759,1.50899209721,2.61892867764,2424.977
583,-1.42737628759,1.50899209721,2.61892867764,2424.987
584,-1.450596102,1.52238330238,2.61481465772,2424.997
585,-1.450596102,1.52238330238,2.61481465772,2425.007
586,-1.450596102,1.52238330238,2.61481465772,2425.027
587,-1.47928647776,1.53915589912,2.60955895357,2425.037
588,-1.47928647776,1.53915589912,2.60955895357,2425.057
589,-1.47928647776,1.53915589912,2.60955895357,2425.067
590,-1.47928647776,1.53915589912,2.60955895357,2425.077
591,-1.50792737683,1.55611392591,2.60433177976,2425.087
592,-1.50792737683,1.55611392591,2.60433177976,2425.087
593,-1.51366174796,1.55951917583,2.60326370287,2425.097
594,-1.51366174796,1.55951917583,2.60326370287,2425.107
595,-1.51366174796,1.55951917583,2.60326370287,2425.107
596,-1.51366174796,1.55951917583,2.60326370287,2425.117
597,-1.51366174796,1.55951917583,2.60326370287,2425.127
598,-1.53650345756,1.5732413025,2.5991882379,2425.147
599,-1.53650345756,1.5732413025,2.5991882379,2425.167
600,-1.53650345756,1.5732413025,2.5991882379,2425.177
601,-1.55922233259,1.58700064661,2.59531806679,2425.187
602,-1.55922233259,1.58700064661,2.59531806679,2425.197
603,-1.55922233259,1.58700064661,2.59531806679,2425.207
604,-1.55922233259,1.58700064661,2.59531806679,2425.217
605,-1.58192444273,1.60085033977,2.59144846347,2425.227
606,-1.58192444273,1.60085033977,2.59144846347,2425.237
607,-1.58192444273,1.60085033977,2.59144846347,2425.247
608,-1.58192444273,1.60085033977,2.59144846347,2425.257
609,-1.60451075814,1.61480552375,2.58772103817,2425.277
610,-1.60451075814,1.61480552375,2.58772103817,2425.297
611,-1.63271673011,1.63227324053,2.58283954067,2425.317
612,-1.63271673011,1.63227324053,2.58283954067,2425.327
613,-1.63271673011,1.63227324053,2.58283954067,2425.337
614,-1.63271673011,1.63227324053,2.58283954067,2425.347
615,-1.66076866934,1.64990833318,2.57808953703,2425.367
616,-1.66076866934,1.64990833318,2.57808953703,2425.377
617,-1.66076866934,1.64990833318,2.57808953703,2425.387
618,-1.66076866934,1.64990833318,2.57808953703,2425.397
619,-1.68873138238,1.66761133694,2.57313798649,2425.407
620,-1.69420760951,1.67112289757,2.57221563858,2425.417
621,-1.69420760951,1.67112289757,2.57221563858,2425.427
622,-1.69420760951,1.67112289757,2.57221563858,2425.447
623,-1.7164001946,1.68532620258,2.56842689118,2425.457
624,-1.7164001946,1.68532620258,2.56842689118,2425.467
625,-1.7164001946,1.68532620258,2.56842689118,2425.477
626,-1.7164001946,1.68532620258,2.56842689118,2425.487
627,-1.7164001946,1.68532620258,2.56842689118,2425.497
628,-1.73855368893,1.69978073239,2.56467688779,2425.507
629,-1.73855368893,1.69978073239,2.56467688779,2425.517
630,-1.73855368893,1.69978073239,2.56467688779,2425.527
631,-1.73855368893,1.69978073239,2.56467688779,2425.537
632,-1.76063353717,1.71418678911,2.56065169051,2425.547
633,-1.76063353717,1.71418678911,2.56065169051,2425.557
634,-1.76063353717,1.71418678911,2.56065169051,2425.557
635,-1.76063353717,1.71418678911,2.56065169051,2425.567
636,-1.76063353717,1.71418678911,2.56065169051,2425.577
637,-1.7827158134,1.72872295673,2.55637476642,2425.587
638,-1.7827158134,1.72872295673,2.55637476642,2425.597
639,-1.7827158134,1.72872295673,2.55637476642,2425.607
640,-1.7827158134,1.72872295673,2.55637476642,2425.617
641,-1.7827158134,1.72872295673,2.55637476642,2425.627
642,-1.81012928843,1.74697595915,2.55109936577,2425.637
643,-1.81012928843,1.74697595915,2.55109936577,2425.647
644,-1.81012928843,1.74697595915,2.55109936577,2425.657
645,-1.81012928843,1.74697595915,2.55109936577,2425.667
646,-1.81012928843,1.74697595915,2.55109936577,2425.677
647,-1.83735555744,1.76533016687,2.54576065973,2425.687
648,-1.83735555744,1.76533016687,2.54576065973,2425.697
649,-1.83735555744,1.76533016687,2.54576065973,2425.707
650,-1.83735555744,1.76533016687,2.54576065973,2425.717
651,-1.86454702736,1.78383384568,2.54059995212,2425.727
652,-1.86454702736,1.78383384568,2.54059995212,2425.737
653,-1.86454702736,1.78383384568,2.54059995212,2425.747
654,-1.86454702736,1.78383384568,2.54059995212,2425.757
655,-1.89158672759,1.80245919819,2.5352097835,2425.777
656,-1.89158672759,1.80245919819,2.5352097835,2425.777
657,-1.89694966851,1.80623726376,2.53418712231,2425.787
658,-1.89694966851,1.80623726376,2.53418712231,2425.797
659,-1.89694966851,1.80623726376,2.53418712231,2425.817
660,-1.9185934447,1.82134608919,2.53012933024,2425.837
661,-1.9185934447,1.82134608919,2.53012933024,2425.857
662,-1.94021416645,1.83648828322,2.52615159629,2425.877
663,-1.94021416645,1.83648828322,2.52615159629,2425.897
664,-1.96706424797,1.85559411516,2.52122683401,2425.917
665,-1.96706424797,1.85559411516,2.52122683401,2425.927
666,-1.96706424797,1.85559411516,2.52122683401,2425.937
667,-1.96706424797,1.85559411516,2.52122683401,2425.947
668,-1.98849382463,1.87093380988,2.51731605625,2425.957
669,-1.99381555262,1.87478404794,2.51633084545,2425.967
670,-1.9991634536,1.87862212429,2.51527942205,2425.977
671,-1.9991634536,1.87862212429,2.51527942205,2425.987
672,-1.9991634536,1.87862212429,2.51527942205,2426.007
673,-2.02047421844,1.89408716285,2.51125607247,2426.027
674,-2.02047421844,1.89408716285,2.51125607247,2426.037
675,-2.02047421844,1.89408716285,2.51125607247,2426.047
676,-2.02047421844,1.89408716285,2.51125607247,2426.057
677,-2.04170940824,1.90966242755,2.50739419633,2426.057
678,-2.04170940824,1.90966242755,2.50739419633,2426.067
679,-2.04170940824,1.90966242755,2.50739419633,2426.077
680,-2.04170940824,1.90966242755,2.50739419633,2426.087
681,-2.04170940824,1.90966242755,2.50739419633,2426.097
682,-2.06292871016,1.92525890383,2.50330149917,2426.107
683,-2.06292871016,1.92525890383,2.50330149917,2426.117
684,-2.06292871016,1.92525890383,2.50330149917,2426.127
685,-2.06292871016,1.92525890383,2.50330149917,2426.137
686,-2.08932325976,1.94491013654,2.49812332225,2426.147
687,-2.08932325976,1.94491013654,2.49812332225,2426.157
688,-2.08932325976,1.94491013654,2.49812332225,2426.167
689,-2.08932325976,1.94491013654,2.49812332225,2426.177
690,-2.11568018306,1.96480577993,2.49275836402,2426.197
691,-2.12093928536,1.9687824427,2.49169918843,2426.207
692,-2.12093928536,1.9687824427,2.49169918843,2426.227
693,-2.12093928536,1.9687824427,2.49169918843,2426.237
694,-2.13671878553,1.98078078938,2.4885853688,2426.267
695,-2.13671878553,1.98078078938,2.4885853688,2426.277
696,-2.16280234525,2.00085692917,2.48367545967,2426.297
697,-2.16280234525,2.00085692917,2.48367545967,2426.307
698,-2.16280234525,2.00085692917,2.48367545967,2426.317
699,-2.16280234525,2.00085692917,2.48367545967,2426.327
700,-2.18879474637,2.02104737298,2.47875816751,2426.337
701,-2.19398192863,2.02509018443,2.47777640461,2426.357
702,-2.19398192863,2.02509018443,2.47777640461,2426.367
703,-2.21474308009,2.04138625068,2.47394436892,2426.397
704,-2.21474308009,2.04138625068,2.47394436892,2426.407
705,-2.21474308009,2.04138625068,2.47394436892,2426.427
706,-2.23542345214,2.05781025899,2.47032838323,2426.437
707,-2.23542345214,2.05781025899,2.47032838323,2426.457
708,-2.23542345214,2.05781025899,2.47032838323,2426.467
709,-2.26122822837,2.07833197929,2.46567720967,2426.477
710,-2.26122822837,2.07833197929,2.46567720967,2426.497
711,-2.26122822837,2.07833197929,2.46567720967,2426.507
712,-2.28180738789,2.0948743816,2.46199471633,2426.517
713,-2.28689022005,2.09903312398,2.46115531778,2426.527
714,-2.29202868777,2.10317754112,2.46025554922,2426.557
715,-2.31254863985,2.1198497216,2.45668990326,2426.577
716,-2.31254863985,2.1198497216,2.45668990326,2426.587
717,-2.31254863985,2.1198497216,2.45668990326,2426.597
718,-2.31254863985,2.1198497216,2.45668990326,2426.617
719,-2.33302299558,2.13659047791,2.4531583599,2426.637
720,-2.33302299558,2.13659047791,2.4531583599,2426.657
721,-2.35842659967,2.15757363976,2.44863039976,2426.667
722,-2.35842659967,2.15757363976,2.44863039976,2426.687
723,-2.35842659967,2.15757363976,2.44863039976,2426.697
724,-2.35842659967,2.15757363976,2.44863039976,2426.697
725,-2.37870900448,2.17442731423,2.44502213646,2426.707
726,-2.38372903977,2.17863355959,2.44415133435,2426.717
727,-2.38875947728,2.18284140153,2.44326383958,2426.727
728,-2.38875947728,2.18284140153,2.44326383958,2426.737
729,-2.38875947728,2.18284140153,2.44326383958,2426.747
730,-2.38875947728,2.18284140153,2.44326383958,2426.757
731,-2.40901688717,2.19989897528,2.43944400946,2426.767
732,-2.40901688717,2.19989897528,2.43944400946,2426.787
733,-2.40901688717,2.19989897528,2.43944400946,2426.787
734,-2.40901688717,2.19989897528,2.43944400946,2426.807
735,-2.40901688717,2.19989897528,2.43944400946,2426.817
736,-2.43423493405,2.22131222746,2.43518712884,2426.827
737,-2.43423493405,2.22131222746,2.43518712884,2426.837
738,-2.43423493405,2.22131222746,2.43518712884,2426.847
739,-2.45931020376,2.24282271112,2.43097430557,2426.867
740,-2.46430364753,2.24713641387,2.43019735438,2426.877
741,-2.46430364753,2.24713641387,2.43019735438,2426.887
742,-2.46430364753,2.24713641387,2.43019735438,2426.897
743,-2.46430364753,2.24713641387,2.43019735438,2426.907
744,-2.46430364753,2.24713641387,2.43019735438,2426.907
745,-2.48437333642,2.2644853564,2.42692733624,2426.917
746,-2.48437333642,2.2644853564,2.42692733624,2426.927
747,-2.48437333642,2.2644853564,2.42692733624,2426.937
748,-2.50439040152,2.28185254245,2.42378000484,2426.957
749,-2.50439040152,2.28185254245,2.42378000484,2426.967
750,-2.50439040152,2.28185254245,2.42378000484,2426.987
751,-2.52428950327,2.29935628798,2.42075263201,2427.007
752,-2.52428950327,2.29935628798,2.42075263201,2427.027
753,-2.52428950327,2.29935628798,2.42075263201,2427.037
754,-2.54920647064,2.32128366956,2.41708096657,2427.067
755,-2.54920647064,2.32128366956,2.41708096657,2427.087
756,-2.57401282909,2.34332335451,2.41348046241,2427.097
757,-2.57892198173,2.34775397871,2.41280904313,2427.107
758,-2.57892198173,2.34775397871,2.41280904313,2427.117
759,-2.57892198173,2.34775397871,2.41280904313,2427.127
760,-2.57892198173,2.34775397871,2.41280904313,2427.137
761,-2.59878236026,2.36543353311,2.41001256576,2427.147
762,-2.59878236026,2.36543353311,2.41001256576,2427.157
763,-2.59878236026,2.36543353311,2.41001256576,2427.167
764,-2.59878236026,2.36543353311,2.41001256576,2427.187
765,-2.61853389407,2.38321298787,2.40740067821,2427.197
766,-2.61853389407,2.38321298787,2.40740067821,2427.207
767,-2.61853389407,2.38321298787,2.40740067821,2427.217
768,-2.61853389407,2.38321298787,2.40740067821,2427.217
769,-2.61853389407,2.38321298787,2.40740067821,2427.227
770,-2.64316681589,2.40550091443,2.40416900714,2427.237
771,-2.64316681589,2.40550091443,2.40416900714,2427.247
772,-2.64316681589,2.40550091443,2.40416900714,2427.257
773,-2.64316681589,2.40550091443,2.40416900714,2427.267
774,-2.64316681589,2.40550091443,2.40416900714,2427.277
775,-2.66283165083,2.42339987222,2.4016669667,2427.277
776,-2.66773783809,2.42789449537,2.40108579948,2427.287
777,-2.67267921304,2.43238999109,2.40045832943,2427.297
778,-2.67267921304,2.43238999109,2.40045832943,2427.307
779,-2.67267921304,2.43238999109,2.40045832943,2427.317
780,-2.67267921304,2.43238999109,2.40045832943,2427.327
781,-2.67267921304,2.43238999109,2.40045832943,2427.337
782,-2.692446705,2.45047217553,2.39793653797,2427.347
783,-2.692446705,2.45047217553,2.39793653797,2427.357
784,-2.692446705,2.45047217553,2.39793653797,2427.367
785,-2.71210628238,2.46861059745,2.39529071543,2427.387
786,-2.71210628238,2.46861059745,2.39529071543,2427.397
787,-2.71210628238,2.46861059745,2.39529071543,2427.407
788,-2.71210628238,2.46861059745,2.39529071543,2427.417
789,-2.73167777702,2.48675041607,2.39312993276,2427.427
790,-2.73167777702,2.48675041607,2.39312993276,2427.437
791,-2.73167777702,2.48675041607,2.39312993276,2427.447
792,-2.73167777702,2.48675041607,2.39312993276,2427.447
793,-2.73167777702,2.48675041607,2.39312993276,2427.467
794,-2.75608570885,2.50950408685,2.39067927085,2427.467
795,-2.75608570885,2.50950408685,2.39067927085,2427.477
796,-2.75608570885,2.50950408685,2.39067927085,2427.487
797,-2.75608570885,2.50950408685,2.39067927085,2427.497
798,-2.75608570885,2.50950408685,2.39067927085,2427.507
799,-2.78535425283,2.53691149359,2.3882915906,2427.527
800,-2.78535425283,2.53691149359,2.3882915906,2427.537
801,-2.78535425283,2.53691149359,2.3882915906,2427.557
802,-2.80486383358,2.5552605189,2.38679795123,2427.567
803,-2.80486383358,2.5552605189,2.38679795123,2427.577
804,-2.80486383358,2.5552605189,2.38679795123,2427.587
805,-2.80486383358,2.5552605189,2.38679795123,2427.607
806,-2.82435322758,2.57367010284,2.38564622224,2427.617
807,-2.82435322758,2.57367010284,2.38564622224,2427.627
808,-2.82435322758,2.57367010284,2.38564622224,2427.637
809,-2.84389406301,2.59207837295,2.38468763258,2427.647
810,-2.84389406301,2.59207837295,2.38468763258,2427.667
811,-2.84389406301,2.59207837295,2.38468763258,2427.667
812,-2.84389406301,2.59207837295,2.38468763258,2427.677
813,-2.84389406301,2.59207837295,2.38468763258,2427.687
814,-2.86826078616,2.61509139104,2.38352710073,2427.717
815,-2.86826078616,2.61509139104,2.38352710073,2427.727
816,-2.89254130274,2.63823937553,2.38255769158,2427.747
817,-2.89742385646,2.6428629382,2.38244530644,2427.767
818,-2.89742385646,2.6428629382,2.38244530644,2427.777
819,-2.89742385646,2.6428629382,2.38244530644,2427.787
820,-2.91701133338,2.66139323977,2.38206662145,2427.797
821,-2.91701133338,2.66139323977,2.38206662145,2427.817
822,-2.91701133338,2.66139323977,2.38206662145,2427.827
823,-2.94147945752,2.68464404511,2.38171457681,2427.847
824,-2.94147945752,2.68464404511,2.38171457681,2427.857
825,-2.94147945752,2.68464404511,2.38171457681,2427.867
826,-2.94147945752,2.68464404511,2.38171457681,2427.887
827,-2.96600241889,2.70792791136,2.38144839384,2427.897
828,-2.97090015782,2.71258858773,2.38143992746,2427.907
829,-2.97090015782,2.71258858773,2.38143992746,2427.917
830,-2.97090015782,2.71258858773,2.38143992746,2427.927
831,-2.97090015782,2.71258858773,2.38143992746,2427.937
832,-2.99063728625,2.73131684301,2.38150297269,2427.947
833,-2.99063728625,2.73131684301,2.38150297269,2427.967
834,-2.99063728625,2.73131684301,2.38150297269,2427.987
835,-3.01037435671,2.75005147309,2.38153986529,2427.997
836,-3.01037435671,2.75005147309,2.38153986529,2428.007
837,-3.01037435671,2.75005147309,2.38153986529,2428.017
838,-3.01037435671,2.75005147309,2.38153986529,2428.027
839,-3.03520449521,2.77360550172,2.38163229676,2428.047
840,-3.03520449521,2.77360550172,2.38163229676,2428.067
841,-3.03520449521,2.77360550172,2.38163229676,2428.067
842,-3.05513890654,2.79250261559,2.38172690092,2428.087
843,-3.06516587237,2.80202358148,2.38183795324,2428.097
844,-3.06516587237,2.80202358148,2.38183795324,2428.097
845,-3.06516587237,2.80202358148,2.38183795324,2428.107
846,-3.06516587237,2.80202358148,2.38183795324,2428.117
847,-3.06516587237,2.80202358148,2.38183795324,2428.127
848,-3.08533248869,2.82115045587,2.38215533034,2428.137
849,-3.08533248869,2.82115045587,2.38215533034,2428.147
850,-3.08533248869,2.82115045587,2.38215533034,2428.157
851,-3.08533248869,2.82115045587,2.38215533034,2428.167
852,-3.08533248869,2.82115045587,2.38215533034,2428.167
853,-3.10575153736,2.84035161366,2.38268987817,2428.177
854,-3.10575153736,2.84035161366,2.38268987817,2428.197
855,-3.10575153736,2.84035161366,2.38268987817,2428.207
856,-3.10575153736,2.84035161366,2.38268987817,2428.227
857,-3.13141880572,2.86476404743,2.38430399382,2428.237
858,-3.13141880572,2.86476404743,2.38430399382,2428.247
859,-3.13141880572,2.86476404743,2.38430399382,2428.257
860,-3.13141880572,2.86476404743,2.38430399382,2428.267
861,-3.1575103133,2.88929598203,2.38677248942,2428.277
862,-3.16278821376,2.89427418143,2.38746235802,2428.287
863,-3.16278821376,2.89427418143,2.38746235802,2428.287
864,-3.16278821376,2.89427418143,2.38746235802,2428.297
865,-3.16278821376,2.89427418143,2.38746235802,2428.307
866,-3.16278821376,2.89427418143,2.38746235802,2428.317
867,-3.18431361692,2.91447741703,2.3914531485,2428.327
868,-3.18431361692,2.91447741703,2.3914531485,2428.337
869,-3.18431361692,2.91447741703,2.3914531485,2428.347
870,-3.18431361692,2.91447741703,2.3914531485,2428.357
871,-3.20631004615,2.93495027545,2.39686309374,2428.367
872,-3.20631004615,2.93495027545,2.39686309374,2428.377
873,-3.20631004615,2.93495027545,2.39686309374,2428.407
874,-3.23455426647,2.96066635351,2.4049166417,2428.427
875,-3.23455426647,2.96066635351,2.4049166417,2428.437
876,-3.23455426647,2.96066635351,2.4049166417,2428.447
877,-3.26400433849,2.98718629618,2.4159187066,2428.467
878,-3.27004019262,2.99253656444,2.41837148366,2428.487
879,-3.27004019262,2.99253656444,2.41837148366,2428.497
880,-3.27004019262,2.99253656444,2.41837148366,2428.507
881,-3.29531221782,3.01464707213,2.4293116417,2428.517
882,-3.29531221782,3.01464707213,2.4293116417,2428.527
883,-3.29531221782,3.01464707213,2.4293116417,2428.537
884,-3.29531221782,3.01464707213,2.4293116417,2428.547
885,-3.32324098534,3.03843465777,2.44373912479,2428.557
886,-3.32324098534,3.03843465777,2.44373912479,2428.567
887,-3.32324098534,3.03843465777,2.44373912479,2428.577
888,-3.32324098534,3.03843465777,2.44373912479,2428.587
889,-3.32324098534,3.03843465777,2.44373912479,2428.597
890,-3.35489141082,3.06440717894,2.46203274937,2428.607
891,-3.35489141082,3.06440717894,2.46203274937,2428.617
892,-3.35489141082,3.06440717894,2.46203274937,2428.627
893,-3.35489141082,3.06440717894,2.46203274937,2428.637
894,-3.3987014155,3.09887837427,2.48855097515,2428.647
895,-3.3987014155,3.09887837427,2.48855097515,2428.657
896,-3.3987014155,3.09887837427,2.48855097515,2428.667
897,-3.3987014155,3.09887837427,2.48855097515,2428.687
898,-3.45292150281,3.13897390408,2.52409916591,2428.697
899,-3.46437900809,3.1470649913,2.5318077672,2428.707
900,-3.46437900809,3.1470649913,2.5318077672,2428.717
901,-3.46437900809,3.1470649913,2.5318077672,2428.737
902,-3.46437900809,3.1470649913,2.5318077672,2428.747
903,-3.50581068915,3.17511417993,2.56505235605,2428.757
904,-3.50581068915,3.17511417993,2.56505235605,2428.767
905,-3.50581068915,3.17511417993,2.56505235605,2428.777
906,-3.50581068915,3.17511417993,2.56505235605,2428.787
907,-3.55080857728,3.20321699816,2.60714254075,2428.797
908,-3.55080857728,3.20321699816,2.60714254075,2428.807
909,-3.55080857728,3.20321699816,2.60714254075,2428.817
910,-3.55080857728,3.20321699816,2.60714254075,2428.837
911,-3.58506467438,3.22274468883,2.6453274177,2428.847
912,-3.59103026397,3.22594884137,2.65251108387,2428.857
913,-3.59103026397,3.22594884137,2.65251108387,2428.867
914,-3.59103026397,3.22594884137,2.65251108387,2428.877
915,-3.59103026397,3.22594884137,2.65251108387,2428.887
916,-3.61274320502,3.23729534522,2.68039046426,2428.897
917,-3.61274320502,3.23729534522,2.68039046426,2428.907
918,-3.61274320502,3.23729534522,2.68039046426,2428.917
919,-3.61274320502,3.23729534522,2.68039046426,2428.927
920,-3.61274320502,3.23729534522,2.68039046426,2428.937
921,-3.6314147106,3.24648423386,2.70768450745,2428.947
922,-3.6314147106,3.24648423386,2.70768450745,2428.957
923,-3.6314147106,3.24648423386,2.70768450745,2428.967
924,-3.6314147106,3.24648423386,2.70768450745,2428.977
925,-3.64870704404,3.25441351869,2.73469524126,2428.987
926,-3.64870704404,3.25441351869,2.73469524126,2428.997
927,-3.64870704404,3.25441351869,2.73469524126,2429.007
928,-3.64870704404,3.25441351869,2.73469524126,2429.017
929,-3.66855672518,3.26278108454,2.76883894721,2429.027
930,-3.66855672518,3.26278108454,2.76883894721,2429.037
931,-3.66855672518,3.26278108454,2.76883894721,2429.047
932,-3.66855672518,3.26278108454,2.76883894721,2429.067
933,-3.68402669903,3.26872042149,2.79630627851,2429.067
934,-3.69164663733,3.27154621879,2.81020609608,2429.087
935,-3.69164663733,3.27154621879,2.81020609608,2429.097
936,-3.69164663733,3.27154621879,2.81020609608,2429.107
937,-3.69164663733,3.27154621879,2.81020609608,2429.117
938,-3.70732215343,3.27685133188,2.83797115977,2429.127
939,-3.70732215343,3.27685133188,2.83797115977,2429.137
940,-3.70732215343,3.27685133188,2.83797115977,2429.147
941,-3.70732215343,3.27685133188,2.83797115977,2429.157
942,-3.70732215343,3.27685133188,2.83797115977,2429.157
943,-3.70732215343,3.27685133188,2.83797115977,2429.167
944,-3.72293333854,3.2816794957,2.86608366401,2429.177
945,-3.72293333854,3.2816794957,2.86608366401,2429.187
946,-3.72293333854,3.2816794957,2.86608366401,2429.197
947,-3.72293333854,3.2816794957,2.86608366401,2429.207
948,-3.72293333854,3.2816794957,2.86608366401,2429.217
949,-3.74258289431,3.28711959792,2.9016404008,2429.227
950,-3.74258289431,3.28711959792,2.9016404008,2429.237
951,-3.74258289431,3.28711959792,2.9016404008,2429.257
952,-3.76345058498,3.29201409206,2.93698061006,2429.267
953,-3.76766022772,3.29291028963,2.944086623,2429.277
954,-3.76766022772,3.29291028963,2.944086623,2429.287
955,-3.76766022772,3.29291028963,2.944086623,2429.297
956,-3.76766022772,3.29291028963,2.944086623,2429.317
957,-3.78545604076,3.29640057922,2.97221275425,2429.327
958,-3.78545604076,3.29640057922,2.97221275425,2429.347
959,-3.78545604076,3.29640057922,2.97221275425,2429.357
960,-3.80374257073,3.29937778377,3.00021877565,2429.367
961,-3.80374257073,3.29937778377,3.00021877565,2429.377
962,-3.80374257073,3.29937778377,3.00021877565,2429.397
963,-3.82740060879,3.30256673261,3.03485392125,2429.407
964,-3.82740060879,3.30256673261,3.03485392125,2429.417
965,-3.82740060879,3.30256673261,3.03485392125,2429.427
966,-3.82740060879,3.30256673261,3.03485392125,2429.437
967,-3.85252176468,3.30499809773,3.06889003575,2429.457
968,-3.8576237139,3.30539661029,3.07566072008,2429.467
969,-3.8576237139,3.30539661029,3.07566072008,2429.477
970,-3.8576237139,3.30539661029,3.07566072008,2429.487
971,-3.8576237139,3.30539661029,3.07566072008,2429.507
972,-3.87904616115,3.30667635353,3.10221762741,2429.517
973,-3.87904616115,3.30667635353,3.10221762741,2429.527
974,-3.87904616115,3.30667635353,3.10221762741,2429.537
975,-3.87904616115,3.30667635353,3.10221762741,2429.547
976,-3.90086115241,3.30738781021,3.12796013993,2429.557
977,-3.90086115241,3.30738781021,3.12796013993,2429.567
978,-3.90086115241,3.30738781021,3.12796013993,2429.577
979,-3.90086115241,3.30738781021,3.12796013993,2429.587
980,-3.92904877558,3.30748436074,-3.12370939365,2429.607
981,-3.92904877558,3.30748436074,-3.12370939365,2429.617
982,-3.92904877558,3.30748436074,-3.12370939365,2429.627
983,-3.95808684652,3.30664394586,-3.09331633437,2429.647
984,-3.96399943749,3.30640717055,-3.08729348229,2429.667
985,-3.96399943749,3.30640717055,-3.08729348229,2429.687
986,-3.9881190955,3.30482665787,-3.06400430386,2429.697
987,-3.9881190955,3.30482665787,-3.06400430386,2429.707
988,-3.9881190955,3.30482665787,-3.06400430386,2429.717
989,-3.9881190955,3.30482665787,-3.06400430386,2429.727
990,-4.01274043531,3.30283305293,-3.04147741538,2429.747
991,-4.01274043531,3.30283305293,-3.04147741538,2429.757
992,-4.01274043531,3.30283305293,-3.04147741538,2429.777
993,-4.04399550341,3.29932943308,-3.01434029246,2429.787
994,-4.04399550341,3.29932943308,-3.01434029246,2429.797
995,-4.04399550341,3.29932943308,-3.01434029246,2429.807
996,-4.04399550341,3.29932943308,-3.01434029246,2429.827
997,-4.07592008337,3.29491199938,-2.98846803631,2429.837
998,-4.0823289808,3.29392575482,-2.98343771865,2429.867
999,-4.0823289808,3.29392575482,-2.98343771865,2429.877
1000,-4.10833545931,3.28961053219,-2.96397168759,2429.887
1001,-4.10833545931,3.28961053219,-2.96397168759,2429.897
1002,-4.10833545931,3.28961053219,-2.96397168759,2429.907
1003,-4.10833545931,3.28961053219,-2.96397168759,2429.917
1004,-4.10833545931,3.28961053219,-2.96397168759,2429.927
1005,-4.13455729688,3.28470322781,-2.94522101211,2429.937
1006,-4.13455729688,3.28470322781,-2.94522101211,2429.947
1007,-4.13455729688,3.28470322781,-2.94522101211,2429.957
1008,-4.13455729688,3.28470322781,-2.94522101211,2429.967
1009,-4.16102163258,3.27926671661,-2.92743528497,2429.977
1010,-4.16102163258,3.27926671661,-2.92743528497,2429.987
1011,-4.16102163258,3.27926671661,-2.92743528497,2429.997
1012,-4.16102163258,3.27926671661,-2.92743528497,2430.007
1013,-4.19418085774,3.27176711638,-2.90575112498,2430.027
1014,-4.19418085774,3.27176711638,-2.90575112498,2430.037
1015,-4.19418085774,3.27176711638,-2.90575112498,2430.047
1016,-4.22732737622,3.26364361688,-2.88626498273,2430.067
1017,-4.23390783177,3.26191522915,-2.8825713524,2430.077
1018,-4.23390783177,3.26191522915,-2.8825713524,2430.087
1019,-4.23390783177,3.26191522915,-2.8825713524,2430.097
1020,-4.23390783177,3.26191522915,-2.8825713524,2430.107
1021,-4.23390783177,3.26191522915,-2.8825713524,2430.117
1022,-4.26073730352,3.25468539594,-2.8679036533,2430.127
1023,-4.26073730352,3.25468539594,-2.8679036533,2430.137
1024,-4.26073730352,3.25468539594,-2.8679036533,2430.147
1025,-4.26073730352,3.25468539594,-2.8679036533,2430.157
1026,-4.28761484762,3.2470241207,-2.85355142103,2430.177
1027,-4.28761484762,3.2470241207,-2.85355142103,2430.187
1028,-4.28761484762,3.2470241207,-2.85355142103,2430.197
1029,-4.3212789572,3.23677062264,-2.836262828,2430.217
1030,-4.3212789572,3.23677062264,-2.836262828,2430.227
1031,-4.3212789572,3.23677062264,-2.836262828,2430.237
1032,-4.3212789572,3.23677062264,-2.836262828,2430.247
1033,-4.35483202377,3.22596591359,-2.82054476556,2430.257
1034,-4.36155913441,3.22370636083,-2.8175194645,2430.267
1035,-4.36155913441,3.22370636083,-2.8175194645,2430.277
1036,-4.36155913441,3.22370636083,-2.8175194645,2430.287
1037,-4.36155913441,3.22370636083,-2.8175194645,2430.297
1038,-4.38859351898,3.21452560623,-2.80577017466,2430.307
1039,-4.38859351898,3.21452560623,-2.80577017466,2430.327
1040,-4.38859351898,3.21452560623,-2.80577017466,2430.337
1041,-4.38859351898,3.21452560623,-2.80577017466,2430.347
1042,-4.4155382526,3.20495544766,-2.79458609918,2430.357
1043,-4.4155382526,3.20495544766,-2.79458609918,2430.367
1044,-4.4155382526,3.20495544766,-2.79458609918,2430.377
1045,-4.4155382526,3.20495544766,-2.79458609918,2430.387
1046,-4.44918777661,3.19258827198,-2.78143923242,2430.407
1047,-4.44918777661,3.19258827198,-2.78143923242,2430.417
1048,-4.44918777661,3.19258827198,-2.78143923242,2430.427
1049,-4.44918777661,3.19258827198,-2.78143923242,2430.437
1050,-4.4894468189,3.17710498337,-2.76657155986,2430.457
1051,-4.4894468189,3.17710498337,-2.76657155986,2430.477
1052,-4.51622759942,3.16646678087,-2.75726775271,2430.497
1053,-4.51622759942,3.16646678087,-2.75726775271,2430.507
1054,-4.51622759942,3.16646678087,-2.75726775271,2430.517
1055,-4.51622759942,3.16646678087,-2.75726775271,2430.527
1056,-4.54291547878,3.15553471208,-2.74854586297,2430.537
1057,-4.54291547878,3.15553471208,-2.74854586297,2430.547
1058,-4.54291547878,3.15553471208,-2.74854586297,2430.567
1059,-4.54291547878,3.15553471208,-2.74854586297,2430.577
1060,-4.56958402958,3.1444015616,-2.74034862975,2430.587
1061,-4.56958402958,3.1444015616,-2.74034862975,2430.607
1062,-4.56958402958,3.1444015616,-2.74034862975,2430.617
1063,-4.60283514055,3.13013505239,-2.73073657046,2430.637
1064,-4.60283514055,3.13013505239,-2.73073657046,2430.647
1065,-4.60283514055,3.13013505239,-2.73073657046,2430.657
1066,-4.62935531713,3.11852261629,-2.72355346872,2430.667
1067,-4.64248887367,3.1126094548,-2.720250063,2430.687
1068,-4.64248887367,3.1126094548,-2.720250063,2430.707
1069,-4.64248887367,3.1126094548,-2.720250063,2430.717
1070,-4.66887650842,3.10073884507,-2.71398579097,2430.737
1071,-4.66887650842,3.10073884507,-2.71398579097,2430.747
1072,-4.69524515539,3.08864234008,-2.70795986628,2430.767
1073,-4.69524515539,3.08864234008,-2.70795986628,2430.797
1074,-4.72808499702,3.07332238973,-2.70074209799,2430.817
1075,-4.72808499702,3.07332238973,-2.70074209799,2430.837
1076,-4.72808499702,3.07332238973,-2.70074209799,2430.847
1077,-4.72808499702,3.07332238973,-2.70074209799,2430.857
1078,-4.76079517504,3.05773995146,-2.69398324406,2430.867
1079,-4.76735348057,3.05460543546,-2.69268589006,2430.877
1080,-4.76735348057,3.05460543546,-2.69268589006,2430.907
1081,-4.7934842749,3.04196241965,-2.68774803594,2430.927
1082,-4.7934842749,3.04196241965,-2.68774803594,2430.947
1083,-4.81948739137,3.02915801178,-2.68321874736,2430.967
1084,-4.81948739137,3.02915801178,-2.68321874736,2430.977
1085,-4.81948739137,3.02915801178,-2.68321874736,2430.987
1086,-4.84544860842,3.01631806701,-2.67863635347,2431.007
1087,-4.84544860842,3.01631806701,-2.67863635347,2431.017
1088,-4.84544860842,3.01631806701,-2.67863635347,2431.027
1089,-4.84544860842,3.01631806701,-2.67863635347,2431.037
1090,-4.87136227147,3.00330645748,-2.67440986552,2431.047
1091,-4.87136227147,3.00330645748,-2.67440986552,2431.067
1092,-4.87136227147,3.00330645748,-2.67440986552,2431.067
1093,-4.87136227147,3.00330645748,-2.67440986552,2431.077
1094,-4.90383401547,2.98686856529,-2.66926765473,2431.087
1095,-4.90383401547,2.98686856529,-2.66926765473,2431.097
1096,-4.90383401547,2.98686856529,-2.66926765473,2431.107
1097,-4.90383401547,2.98686856529,-2.66926765473,2431.117
1098,-4.92944194187,2.97359961256,-2.66588859428,2431.127
1099,-4.93591204945,2.97030496048,-2.66507137651,2431.137
1100,-4.94237428027,2.96701232548,-2.66422459901,2431.157
1101,-4.94237428027,2.96701232548,-2.66422459901,2431.157
1102,-4.94237428027,2.96701232548,-2.66422459901,2431.177
1103,-4.94237428027,2.96701232548,-2.66422459901,2431.187
1104,-4.96804171798,2.95362405376,-2.66116975501,2431.197
1105,-4.96804171798,2.95362405376,-2.66116975501,2431.207
1106,-4.96804171798,2.95362405376,-2.66116975501,2431.217
1107,-4.96804171798,2.95362405376,-2.66116975501,2431.227
1108,-4.99377071415,2.94023233026,-2.65806963151,2431.237
1109,-4.99377071415,2.94023233026,-2.65806963151,2431.257
1110,-4.99377071415,2.94023233026,-2.65806963151,2431.267
1111,-5.02576144605,2.92337576195,-2.6545036303,2431.297
1112,-5.02576144605,2.92337576195,-2.6545036303,2431.307
1113,-5.05129123219,2.90979241557,-2.65150969317,2431.317
1114,-5.05768547029,2.90638684404,-2.65082512857,2431.327
1115,-5.06406629257,2.90299454563,-2.65013308176,2431.347
1116,-5.06406629257,2.90299454563,-2.65013308176,2431.357
1117,-5.06406629257,2.90299454563,-2.65013308176,2431.367
1118,-5.08944106413,2.88925020341,-2.64746239363,2431.377
1119,-5.08944106413,2.88925020341,-2.64746239363,2431.397
1120,-5.08944106413,2.88925020341,-2.64746239363,2431.407
1121,-5.11490508438,2.87545988119,-2.64508167852,2431.427
1122,-5.11490508438,2.87545988119,-2.64508167852,2431.447
1123,-5.14671527778,2.85818436901,-2.64229397076,2431.477
1124,-5.14671527778,2.85818436901,-2.64229397076,2431.487
1125,-5.14671527778,2.85818436901,-2.64229397076,2431.507
1126,-5.17847293233,2.8408200344,-2.63976024153,2431.517
1127,-5.18479773823,2.8373297125,-2.639322911,2431.527
1128,-5.18479773823,2.8373297125,-2.639322911,2431.537
1129,-5.18479773823,2.8373297125,-2.639322911,2431.557
1130,-5.18479773823,2.8373297125,-2.639322911,2431.567
1131,-5.21014899993,2.82343722277,-2.63732083037,2431.577
1132,-5.21014899993,2.82343722277,-2.63732083037,2431.587
1133,-5.21014899993,2.82343722277,-2.63732083037,2431.607
1134,-5.23544611217,2.80943823821,-2.63544453107,2431.617
1135,-5.23544611217,2.80943823821,-2.63544453107,2431.637
1136,-5.26701397545,2.79187000636,-2.6334792547,2431.657
1137,-5.26701397545,2.79187000636,-2.6334792547,2431.677
1138,-5.26701397545,2.79187000636,-2.6334792547,2431.687
1139,-5.29859325368,2.77423725463,-2.63158805679,2431.707
1140,-5.30488103011,2.77069566037,-2.6312397379,2431.717
1141,-5.30488103011,2.77069566037,-2.6312397379,2431.727
1142,-5.30488103011,2.77069566037,-2.6312397379,2431.747
1143,-5.33008622086,2.75655253329,-2.629975518,2431.767
1144,-5.33008622086,2.75655253329,-2.629975518,2431.787
1145,-5.35531977209,2.74240705348,-2.62859553156,2431.817
1146,-5.35531977209,2.74240705348,-2.62859553156,2431.827
1147,-5.38676571616,2.72463202512,-2.627043641,2431.857
1148,-5.38676571616,2.72463202512,-2.627043641,2431.877
1149,-5.38676571616,2.72463202512,-2.627043641,2431.897
1150,-5.41820535721,2.70684200417,-2.62565971589,2431.917
1151,-5.41820535721,2.70684200417,-2.62565971589,2431.927
1152,-5.44960352302,2.6889855279,-2.62445737339,2431.947
1153,-5.44960352302,2.6889855279,-2.62445737339,2431.957
1154,-5.44960352302,2.6889855279,-2.62445737339,2431.967
1155,-5.4809690895,2.67110366312,-2.62324565164,2431.997
1156,-5.48724730822,2.66751315186,-2.62301128794,2432.017
1157,-5.48724730822,2.66751315186,-2.62301128794,2432.027
1158,-5.48724730822,2.66751315186,-2.62301128794,2432.037
1159,-5.51237808671,2.65320327218,-2.62197928166,2432.057
1160,-5.51237808671,2.65320327218,-2.62197928166,2432.077
1161,-5.53737490325,2.63878554247,-2.62121148917,2432.097
1162,-5.53737490325,2.63878554247,-2.62121148917,2432.107
1163,-5.53737490325,2.63878554247,-2.62121148917,2432.117
1164,-5.53737490325,2.63878554247,-2.62121148917,2432.127
1165,-5.56249196224,2.62446093342,-2.62033141852,2432.137
1166,-5.56249196224,2.62446093342,-2.62033141852,2432.147
1167,-5.56249196224,2.62446093342,-2.62033141852,2432.157
1168,-5.56249196224,2.62446093342,-2.62033141852,2432.157
1169,-5.56249196224,2.62446093342,-2.62033141852,2432.167
1170,-5.59388797913,2.60641410424,-2.61919796647,2432.177
1171,-5.59388797913,2.60641410424,-2.61919796647,2432.187
1172,-5.59388797913,2.60641410424,-2.61919796647,2432.197
1173,-5.59388797913,2.60641410424,-2.61919796647,2432.207
1174,-5.61877718546,2.59194341735,-2.61846518951,2432.217
1175,-5.62505556393,2.58834345685,-2.61825110942,2432.227
1176,-5.63128611916,2.58471369652,-2.61810181652,2432.237
1177,-5.63128611916,2.58471369652,-2.61810181652,2432.257
1178,-5.63128611916,2.58471369652,-2.61810181652,2432.267
1179,-5.63128611916,2.58471369652,-2.61810181652,2432.267
1180,-5.65627713477,2.57024371783,-2.6173524646,2432.277
1181,-5.65627713477,2.57024371783,-2.6173524646,2432.287
1182,-5.65627713477,2.57024371783,-2.6173524646,2432.307
1183,-5.65627713477,2.57024371783,-2.6173524646,2432.307
1184,-5.6813004402,2.55577536279,-2.61671400706,2432.327
1185,-5.6813004402,2.55577536279,-2.61671400706,2432.337
1186,-5.6813004402,2.55577536279,-2.61671400706,2432.337
1187,-5.6813004402,2.55577536279,-2.61671400706,2432.357
1188,-5.71251886555,2.53767245235,-2.61584350837,2432.367
1189,-5.71251886555,2.53767245235,-2.61584350837,2432.377
1190,-5.71251886555,2.53767245235,-2.61584350837,2432.397
1191,-5.73752487864,2.52319055811,-2.61505649152,2432.407
1192,-5.74375315487,2.51957174269,-2.61489072219,2432.417
1193,-5.74997338653,2.5159162823,-2.61475231523,2432.437
1194,-5.74997338653,2.5159162823,-2.61475231523,2432.447
1195,-5.77478989421,2.50142782553,-2.6143567788,2432.467
1196,-5.77478989421,2.50142782553,-2.6143567788,2432.477
1197,-5.77478989421,2.50142782553,-2.6143567788,2432.497
1198,-5.79967729579,2.48697791828,-2.61369141568,2432.507
1199,-5.79967729579,2.48697791828,-2.61369141568,2432.527
1200,-5.79967729579,2.48697791828,-2.61369141568,2432.537
1201,-5.79967729579,2.48697791828,-2.61369141568,2432.547
1202,-5.83091329605,2.46871847147,-2.61254565628,2432.577
1203,-5.83091329605,2.46871847147,-2.61254565628,2432.587
1204,-5.83091329605,2.46871847147,-2.61254565628,2432.597
1205,-5.862080205,2.45048393856,-2.61174972838,2432.607
1206,-5.862080205,2.45048393856,-2.61174972838,2432.607
1207,-5.86830218922,2.44682741496,-2.61158806756,2432.627
1208,-5.86830218922,2.44682741496,-2.61158806756,2432.627
1209,-5.86830218922,2.44682741496,-2.61158806756,2432.637
1210,-5.89317401581,2.43219248465,-2.61108287028,2432.667
1211,-5.89317401581,2.43219248465,-2.61108287028,2432.677
1212,-5.89317401581,2.43219248465,-2.61108287028,2432.687
1213,-5.89317401581,2.43219248465,-2.61108287028,2432.697
1214,-5.91807148667,2.41757608659,-2.61050520262,2432.707
1215,-5.91807148667,2.41757608659,-2.61050520262,2432.717
1216,-5.91807148667,2.41757608659,-2.61050520262,2432.727
1217,-5.91807148667,2.41757608659,-2.61050520262,2432.737
1218,-5.94295939986,2.40293671672,-2.60992586362,2432.747
1219,-5.94295939986,2.40293671672,-2.60992586362,2432.757
1220,-5.94295939986,2.40293671672,-2.60992586362,2432.767
1221,-5.94295939986,2.40293671672,-2.60992586362,2432.777
1222,-5.97405803833,2.38461921214,-2.60912433527,2432.787
1223,-5.97405803833,2.38461921214,-2.60912433527,2432.797
1224,-5.97405803833,2.38461921214,-2.60912433527,2432.817
1225,-5.97405803833,2.38461921214,-2.60912433527,2432.827
1226,-6.00515528461,2.36630032815,-2.60846555415,2432.837
1227,-6.01136706123,2.36263977554,-2.60832118488,2432.857
1228,-6.01136706123,2.36263977554,-2.60832118488,2432.887
1229,-6.03628036885,2.34789276874,-2.60765078011,2432.907
1230,-6.03628036885,2.34789276874,-2.60765078011,2432.927
1231,-6.06109736803,2.333195745,-2.60709818806,2432.937
1232,-6.06109736803,2.333195745,-2.60709818806,2432.957
1233,-6.09214606027,2.31481165591,-2.60654909751,2432.987
1234,-6.09214606027,2.31481165591,-2.60654909751,2433.007
1235,-6.11698124398,2.30009007148,-2.60598326017,2433.017
1236,-6.12934448915,2.29269662714,-2.60573002832,2433.037
1237,-6.12934448915,2.29269662714,-2.60573002832,2433.057
1238,-6.12934448915,2.29269662714,-2.60573002832,2433.057
1239,-6.15420563911,2.27797892975,-2.60518416327,2433.077
1240,-6.15420563911,2.27797892975,-2.60518416327,2433.087
1241,-6.15420563911,2.27797892975,-2.60518416327,2433.097
1242,-6.15420563911,2.27797892975,-2.60518416327,2433.117
1243,-6.17893858329,2.26316294088,-2.60478019685,2433.137
1244,-6.17893858329,2.26316294088,-2.60478019685,2433.147
1245,-6.17893858329,2.26316294088,-2.60478019685,2433.157
1246,-6.20998897628,2.24471714435,-2.60414017299,2433.177
1247,-6.20998897628,2.24471714435,-2.60414017299,2433.187
1248,-6.20998897628,2.24471714435,-2.60414017299,2433.197
1249,-6.23480946648,2.22990469161,-2.60375976097,2433.207
1250,-6.24725457567,2.22253542408,-2.60348783199,2433.227
1251,-6.24725457567,2.22253542408,-2.60348783199,2433.227
1252,-6.24725457567,2.22253542408,-2.60348783199,2433.237
1253,-6.24725457567,2.22253542408,-2.60348783199,2433.247
1254,-6.24725457567,2.22253542408,-2.60348783199,2433.257
1255,-6.24725457567,2.22253542408,-2.60348783199,2433.267
1256,-6.27194139196,2.20767400235,-2.60301816049,2433.277
1257,-6.27194139196,2.20767400235,-2.60301816049,2433.287
1258,-6.27194139196,2.20767400235,-2.60301816049,2433.297
1259,-6.29690314335,2.19283584305,-2.602275843,2433.327
1260,-6.29690314335,2.19283584305,-2.602275843,2433.337
1261,-6.29690314335,2.19283584305,-2.602275843,2433.347
1262,-6.29690314335,2.19283584305,-2.602275843,2433.357
1263,-6.32785864764,2.17425159698,-2.60142733466,2433.367
1264,-6.32785864764,2.17425159698,-2.60142733466,2433.377
1265,-6.35876614383,2.15569724638,-2.60079090127,2433.417
1266,-6.35876614383,2.15569724638,-2.60079090127,2433.437
1267,-6.35876614383,2.15569724638,-2.60079090127,2433.447
1268,-6.38965566973,2.13707561124,-2.60022564996,2433.457
1269,-6.38965566973,2.13707561124,-2.60022564996,2433.467
1270,-6.38965566973,2.13707561124,-2.60022564996,2433.487
1271,-6.38965566973,2.13707561124,-2.60022564996,2433.497
1272,-6.42684277359,2.11477043098,-2.59914216943,2433.517
1273,-6.42684277359,2.11477043098,-2.59914216943,2433.527
1274,-6.42684277359,2.11477043098,-2.59914216943,2433.537
1275,-6.42684277359,2.11477043098,-2.59914216943,2433.547
1276,-6.45146911383,2.09978826613,-2.59866237324,2433.567
1277,-6.45146911383,2.09978826613,-2.59866237324,2433.577
1278,-6.45146911383,2.09978826613,-2.59866237324,2433.587
1279,-6.45146911383,2.09978826613,-2.59866237324,2433.597
1280,-6.47623324107,2.08492971585,-2.59829084793,2433.607
1281,-6.47623324107,2.08492971585,-2.59829084793,2433.617
1282,-6.47623324107,2.08492971585,-2.59829084793,2433.627
1283,-6.47623324107,2.08492971585,-2.59829084793,2433.637
1284,-6.50704156382,2.06627169031,-2.59787465479,2433.657
1285,-6.50704156382,2.06627169031,-2.59787465479,2433.657
1286,-6.50704156382,2.06627169031,-2.59787465479,2433.677
1287,-6.50704156382,2.06627169031,-2.59787465479,2433.677
1288,-6.53173073442,2.05131557648,-2.59742657252,2433.687
1289,-6.53792245248,2.0475873897,-2.59727938167,2433.707
1290,-6.54406586758,2.04382952754,-2.59718559901,2433.717
1291,-6.54406586758,2.04382952754,-2.59718559901,2433.727
1292,-6.54406586758,2.04382952754,-2.59718559901,2433.737
1293,-6.56874144517,2.02889232944,-2.59662974991,2433.747
1294,-6.56874144517,2.02889232944,-2.59662974991,2433.757
1295,-6.56874144517,2.02889232944,-2.59662974991,2433.777
1296,-6.56874144517,2.02889232944,-2.59662974991,2433.787
1297,-6.59341630783,2.01390539087,-2.59608910114,2433.807
1298,-6.59341630783,2.01390539087,-2.59608910114,2433.817
1299,-6.59341630783,2.01390539087,-2.59608910114,2433.827
1300,-6.62423813265,1.99518342382,-2.5955314554,2433.847
1301,-6.62423813265,1.99518342382,-2.5955314554,2433.857
1302,-6.62423813265,1.99518342382,-2.5955314554,2433.867
1303,-6.62423813265,1.99518342382,-2.5955314554,2433.867
1304,-6.65509293026,1.97645723174,-2.594821957,2433.887
1305,-6.66123839025,1.97269661239,-2.59466226072,2433.917
1306,-6.66123839025,1.97269661239,-2.59466226072,2433.927
1307,-6.6858202198,1.95765880691,-2.59419990788,2433.947
1308,-6.6858202198,1.95765880691,-2.59419990788,2433.967
1309,-6.71044515156,1.94261521607,-2.59354834476,2433.987
1310,-6.71044515156,1.94261521607,-2.59354834476,2433.997
1311,-6.71044515156,1.94261521607,-2.59354834476,2434.007
1312,-6.71044515156,1.94261521607,-2.59354834476,2434.017
1313,-6.73507565941,1.92758097172,-2.59296696746,2434.037
1314,-6.73507565941,1.92758097172,-2.59296696746,2434.047
1315,-6.73507565941,1.92758097172,-2.59296696746,2434.057
1316,-6.76582431935,1.90879810884,-2.5923020939,2434.077
1317,-6.76582431935,1.90879810884,-2.5923020939,2434.097
1318,-6.76582431935,1.90879810884,-2.5923020939,2434.107
1319,-6.80269854719,1.88615354516,-2.59156241693,2434.127
1320,-6.80269854719,1.88615354516,-2.59156241693,2434.137
1321,-6.80269854719,1.88615354516,-2.59156241693,2434.157
1322,-6.82729566542,1.87106190367,-2.59111265607,2434.167
1323,-6.82729566542,1.87106190367,-2.59111265607,2434.177
1324,-6.82729566542,1.87106190367,-2.59111265607,2434.187
1325,-6.82729566542,1.87106190367,-2.59111265607,2434.197
1326,-6.82729566542,1.87106190367,-2.59111265607,2434.207
1327,-6.85189382676,1.85595689156,-2.59062394468,2434.217
1328,-6.85189382676,1.85595689156,-2.59062394468,2434.227
1329,-6.85189382676,1.85595689156,-2.59062394468,2434.237
1330,-6.85189382676,1.85595689156,-2.59062394468,2434.247
1331,-6.88264292926,1.83708007538,-2.58969867912,2434.267
1332,-6.88264292926,1.83708007538,-2.58969867912,2434.277
1333,-6.88264292926,1.83708007538,-2.58969867912,2434.287
1334,-6.9071703116,1.82195374468,-2.58899687963,2434.297
1335,-6.91331209521,1.81816188787,-2.58880803955,2434.307
1336,-6.91934572342,1.81437797019,-2.58866908115,2434.317
1337,-6.91934572342,1.81437797019,-2.58866908115,2434.327
1338,-6.91934572342,1.81437797019,-2.58866908115,2434.347
1339,-6.93770482092,1.80302246078,-2.58825558224,2434.357
1340,-6.93770482092,1.80302246078,-2.58825558224,2434.367
1341,-6.93770482092,1.80302246078,-2.58825558224,2434.377
1342,-6.93770482092,1.80302246078,-2.58825558224,2434.387
1343,-6.96840644524,1.78404724668,-2.58736646674,2434.397
1344,-6.96840644524,1.78404724668,-2.58736646674,2434.407
1345,-6.96840644524,1.78404724668,-2.58736646674,2434.417
1346,-6.96840644524,1.78404724668,-2.58736646674,2434.437
1347,-6.99900076124,1.76505093874,-2.5862540859,2434.447
1348,-7.00512038878,1.7612510951,-2.5860322353,2434.457
1349,-7.00512038878,1.7612510951,-2.5860322353,2434.467
1350,-7.00512038878,1.7612510951,-2.5860322353,2434.477
1351,-7.00512038878,1.7612510951,-2.5860322353,2434.487
1352,-7.02959215687,1.74598313219,-2.5850838188,2434.507
1353,-7.02959215687,1.74598313219,-2.5850838188,2434.517
1354,-7.02959215687,1.74598313219,-2.5850838188,2434.527
1355,-7.02959215687,1.74598313219,-2.5850838188,2434.537
1356,-7.05409678301,1.73077346919,-2.58435564535,2434.557
1357,-7.05409678301,1.73077346919,-2.58435564535,2434.567
1358,-7.084677683,1.71168753098,-2.58343288236,2434.587
1359,-7.084677683,1.71168753098,-2.58343288236,2434.607
1360,-7.084677683,1.71168753098,-2.58343288236,2434.627
1361,-7.12127357584,1.68872897996,-2.58230975392,2434.647
1362,-7.12127357584,1.68872897996,-2.58230975392,2434.657
1363,-7.12127357584,1.68872897996,-2.58230975392,2434.667
1364,-7.13964456106,1.67728630283,-2.58167793677,2434.697
1365,-7.13964456106,1.67728630283,-2.58167793677,2434.707
1366,-7.13964456106,1.67728630283,-2.58167793677,2434.717
1367,-7.17017260469,1.65811475708,-2.58060097072,2434.737
1368,-7.17017260469,1.65811475708,-2.58060097072,2434.747
1369,-7.17017260469,1.65811475708,-2.58060097072,2434.757
1370,-7.20674100593,1.63516764348,-2.57913680624,2434.787
1371,-7.20674100593,1.63516764348,-2.57913680624,2434.807
1372,-7.20674100593,1.63516764348,-2.57913680624,2434.827
1373,-7.23105923445,1.61972175925,-2.57814273099,2434.847
1374,-7.23105923445,1.61972175925,-2.57814273099,2434.867
1375,-7.26151756871,1.60044361363,-2.57699943492,2434.897
1376,-7.26151756871,1.60044361363,-2.57699943492,2434.907
1377,-7.28589842087,1.58504587955,-2.57609432228,2434.917
1378,-7.29197672757,1.5811715531,-2.57582416337,2434.927
1379,-7.29800197968,1.57726807435,-2.57564599255,2434.947
1380,-7.29800197968,1.57726807435,-2.57564599255,2434.957
1381,-7.29800197968,1.57726807435,-2.57564599255,2434.967
1382,-7.3223785142,1.56184736347,-2.57475023303,2434.977
1383,-7.3223785142,1.56184736347,-2.57475023303,2434.997
1384,-7.3223785142,1.56184736347,-2.57475023303,2435.007
1385,-7.34666947455,1.54633789326,-2.5737179016,2435.027
1386,-7.34666947455,1.54633789326,-2.5737179016,2435.037
1387,-7.34666947455,1.54633789326,-2.5737179016,2435.047
1388,-7.34666947455,1.54633789326,-2.5737179016,2435.057
1389,-7.37699233838,1.52692466244,-2.5724400377,2435.067
1390,-7.37699233838,1.52692466244,-2.5724400377,2435.087
1391,-7.37699233838,1.52692466244,-2.5724400377,2435.097
1392,-7.40731476606,1.50746911816,-2.57110238271,2435.117
1393,-7.41337887673,1.50357015924,-2.57085539031,2435.127
1394,-7.41337887673,1.50357015924,-2.57085539031,2435.137
1395,-7.41337887673,1.50357015924,-2.57085539031,2435.157
1396,-7.43759478382,1.48798852199,-2.56975006392,2435.167
1397,-7.43759478382,1.48798852199,-2.56975006392,2435.187
1398,-7.43759478382,1.48798852199,-2.56975006392,2435.197
1399,-7.4618955353,1.47241401243,-2.5685198042,2435.217
1400,-7.4618955353,1.47241401243,-2.5685198042,2435.227
1401,-7.4618955353,1.47241401243,-2.5685198042,2435.237
1402,-7.48607101712,1.45676226061,-2.56746347351,2435.257
1403,-7.48607101712,1.45676226061,-2.56746347351,2435.267
1404,-7.48607101712,1.45676226061,-2.56746347351,2435.287
1405,-7.51629572131,1.43718033633,-2.56603978844,2435.307
1406,-7.51629572131,1.43718033633,-2.56603978844,2435.317
1407,-7.51629572131,1.43718033633,-2.56603978844,2435.337
1408,-7.55253538857,1.4136180445,-2.56423575703,2435.357
1409,-7.55253538857,1.4136180445,-2.56423575703,2435.367
1410,-7.55253538857,1.4136180445,-2.56423575703,2435.377
1411,-7.57665154587,1.39786459439,-2.56295795433,2435.407
1412,-7.57665154587,1.39786459439,-2.56295795433,2435.417
1413,-7.57665154587,1.39786459439,-2.56295795433,2435.437
1414,-7.6068340233,1.37817222265,-2.56142182497,2435.457
1415,-7.6068340233,1.37817222265,-2.56142182497,2435.487
1416,-7.64294767167,1.35443585211,-2.55950762886,2435.507
1417,-7.64294767167,1.35443585211,-2.55950762886,2435.527
1418,-7.64294767167,1.35443585211,-2.55950762886,2435.527
1419,-7.64294767167,1.35443585211,-2.55950762886,2435.537
1420,-7.66697529109,1.33850181377,-2.55806259445,2435.557
1421,-7.66697529109,1.33850181377,-2.55806259445,2435.567
1422,-7.66697529109,1.33850181377,-2.55806259445,2435.587
1423,-7.69110660839,1.32261598438,-2.5565362086,2435.607
1424,-7.69110660839,1.32261598438,-2.5565362086,2435.627
1425,-7.7150382677,1.30663402955,-2.55502347679,2435.637
1426,-7.7150382677,1.30663402955,-2.55502347679,2435.657
1427,-7.7150382677,1.30663402955,-2.55502347679,2435.667
1428,-7.7150382677,1.30663402955,-2.55502347679,2435.677
1429,-7.7450302031,1.28670958852,-2.55324464256,2435.687
1430,-7.7450302031,1.28670958852,-2.55324464256,2435.697
1431,-7.7450302031,1.28670958852,-2.55324464256,2435.707
1432,-7.7450302031,1.28670958852,-2.55324464256,2435.727
1433,-7.77490209726,1.26666058395,-2.55146630646,2435.737
1434,-7.77490209726,1.26666058395,-2.55146630646,2435.747
1435,-7.77490209726,1.26666058395,-2.55146630646,2435.757
1436,-7.80481380188,1.24663039243,-2.54958900758,2435.777
1437,-7.81080702205,1.24261458256,-2.54919650118,2435.797
1438,-7.81080702205,1.24261458256,-2.54919650118,2435.807
1439,-7.81080702205,1.24261458256,-2.54919650118,2435.817
1440,-7.8346727749,1.22651659713,-2.54768648696,2435.837
1441,-7.8346727749,1.22651659713,-2.54768648696,2435.847
1442,-7.8346727749,1.22651659713,-2.54768648696,2435.857
1443,-7.85852629799,1.21039213286,-2.54617339117,2435.877
1444,-7.85852629799,1.21039213286,-2.54617339117,2435.887
1445,-7.85852629799,1.21039213286,-2.54617339117,2435.897
1446,-7.85852629799,1.21039213286,-2.54617339117,2435.907
1447,-7.88832010253,1.19023467735,-2.54398261319,2435.927
1448,-7.88832010253,1.19023467735,-2.54398261319,2435.947
1449,-7.91797047498,1.1699600924,-2.5418948352,2435.967
1450,-7.92395350211,1.16590213163,-2.54137586935,2435.987
1451,-7.92395350211,1.16590213163,-2.54137586935,2436.007
1452,-7.94761220802,1.14958998836,-2.53967497141,2436.037
1453,-7.97140658028,1.13329070887,-2.53791180258,2436.057
1454,-7.97140658028,1.13329070887,-2.53791180258,2436.077
1455,-7.97140658028,1.13329070887,-2.53791180258,2436.087
1456,-7.99508019845,1.11692515793,-2.5362195971,2436.107
1457,-7.99508019845,1.11692515793,-2.5362195971,2436.117
1458,-7.99508019845,1.11692515793,-2.5362195971,2436.137
1459,-8.02462165545,1.09640397915,-2.53411419572,2436.147
1460,-8.02462165545,1.09640397915,-2.53411419572,2436.167
1461,-8.02462165545,1.09640397915,-2.53411419572,2436.177
1462,-8.05415268725,1.07580874877,-2.53177319843,2436.197
1463,-8.06003006353,1.07167964727,-2.53138183673,2436.217
1464,-8.06003006353,1.07167964727,-2.53138183673,2436.227
1465,-8.06003006353,1.07167964727,-2.53138183673,2436.247
1466,-8.08366363186,1.05519101935,-2.52951727883,2436.257
1467,-8.08366363186,1.05519101935,-2.52951727883,2436.277
1468,-8.10718257006,1.03861166609,-2.52775804405,2436.297
1469,-8.10718257006,1.03861166609,-2.52775804405,2436.307
1470,-8.10718257006,1.03861166609,-2.52775804405,2436.317
1471,-8.13657962392,1.01783537558,-2.52542307975,2436.337
1472,-8.13657962392,1.01783537558,-2.52542307975,2436.347
1473,-8.13657962392,1.01783537558,-2.52542307975,2436.367
1474,-8.13657962392,1.01783537558,-2.52542307975,2436.377
1475,-8.16593432497,0.997011516227,-2.52304253163,2436.397
1476,-8.19519443909,0.976106491859,-2.52062487141,2436.437
1477,-8.20106227381,0.971919310542,-2.52017778991,2436.467
1478,-8.20106227381,0.971919310542,-2.52017778991,2436.477
1479,-8.22446913739,0.955137820075,-2.51826218341,2436.487
1480,-8.22446913739,0.955137820075,-2.51826218341,2436.497
1481,-8.22446913739,0.955137820075,-2.51826218341,2436.507
1482,-8.22446913739,0.955137820075,-2.51826218341,2436.517
1483,-8.22446913739,0.955137820075,-2.51826218341,2436.527
1484,-8.24785493531,0.938314853282,-2.51620142621,2436.537
1485,-8.24785493531,0.938314853282,-2.51620142621,2436.547
1486,-8.24785493531,0.938314853282,-2.51620142621,2436.557
1487,-8.24785493531,0.938314853282,-2.51620142621,2436.567
1488,-8.27704568958,0.917210671376,-2.51367141032,2436.577
1489,-8.27704568958,0.917210671376,-2.51367141032,2436.587
1490,-8.27704568958,0.917210671376,-2.51367141032,2436.597
1491,-8.27704568958,0.917210671376,-2.51367141032,2436.617
1492,-8.31204233745,0.891745304077,-2.51025143661,2436.637
1493,-8.31204233745,0.891745304077,-2.51025143661,2436.657
1494,-8.31204233745,0.891745304077,-2.51025143661,2436.667
1495,-8.31204233745,0.891745304077,-2.51025143661,2436.677
1496,-8.33518117556,0.87466975503,-2.50828758756,2436.687
1497,-8.33518117556,0.87466975503,-2.50828758756,2436.697
1498,-8.33518117556,0.87466975503,-2.50828758756,2436.707
1499,-8.35840903202,0.857593230074,-2.50607646807,2436.737
1500,-8.35840903202,0.857593230074,-2.50607646807,2436.747
1501,-8.35840903202,0.857593230074,-2.50607646807,2436.767
1502,-8.3873518595,0.836166450236,-2.50335579231,2436.777
1503,-8.3873518595,0.836166450236,-2.50335579231,2436.787
1504,-8.3873518595,0.836166450236,-2.50335579231,2436.797
1505,-8.41624856676,0.814637075798,-2.50048159321,2436.817
1506,-8.42203051021,0.810330803589,-2.49990417361,2436.827
1507,-8.42203051021,0.810330803589,-2.49990417361,2436.837
1508,-8.42203051021,0.810330803589,-2.49990417361,2436.847
1509,-8.42203051021,0.810330803589,-2.49990417361,2436.857
1510,-8.44512089318,0.793062208947,-2.49752742372,2436.877
1511,-8.44512089318,0.793062208947,-2.49752742372,2436.887
1512,-8.46813919985,0.775722615491,-2.49524375518,2436.917
1513,-8.46813919985,0.775722615491,-2.49524375518,2436.947
1514,-8.49687257871,0.754020859587,-2.49223196566,2436.967
1515,-8.49687257871,0.754020859587,-2.49223196566,2436.987
1516,-8.52551073598,0.732195964653,-2.4892978931,2437.007
1517,-8.53125961817,0.727824616918,-2.48865536776,2437.027
1518,-8.53125961817,0.727824616918,-2.48865536776,2437.037
1519,-8.53125961817,0.727824616918,-2.48865536776,2437.057
1520,-8.55416212404,0.710304789857,-2.48606108433,2437.067
1521,-8.55416212404,0.710304789857,-2.48606108433,2437.087
1522,-8.55416212404,0.710304789857,-2.48606108433,2437.097
1523,-8.57691157111,0.69271612412,-2.48360291231,2437.117
1524,-8.57691157111,0.69271612412,-2.48360291231,2437.127
1525,-8.57691157111,0.69271612412,-2.48360291231,2437.137
1526,-8.60546191256,0.670584208761,-2.48043616148,2437.147
1527,-8.60546191256,0.670584208761,-2.48043616148,2437.157
1528,-8.60546191256,0.670584208761,-2.48043616148,2437.177
1529,-8.60546191256,0.670584208761,-2.48043616148,2437.187
1530,-8.63383826615,0.648400515864,-2.47738302065,2437.197
1531,-8.63954705055,0.643963263455,-2.47673946605,2437.217
1532,-8.63954705055,0.643963263455,-2.47673946605,2437.227
1533,-8.63954705055,0.643963263455,-2.47673946605,2437.237
1534,-8.65662419908,0.630566490879,-2.47473783193,2437.257
1535,-8.65662419908,0.630566490879,-2.47473783193,2437.277
1536,-8.68491438637,0.608191776036,-2.47132147622,2437.287
1537,-8.68491438637,0.608191776036,-2.47132147622,2437.297
1538,-8.68491438637,0.608191776036,-2.47132147622,2437.307
1539,-8.68491438637,0.608191776036,-2.47132147622,2437.327
1540,-8.713118105,0.585718978642,-2.46791586575,2437.337
1541,-8.7187592102,0.581215312155,-2.46729228593,2437.357
1542,-8.7187592102,0.581215312155,-2.46729228593,2437.367
1543,-8.7187592102,0.581215312155,-2.46729228593,2437.377
1544,-8.74131496678,0.563156316635,-2.46462315571,2437.397
1545,-8.74131496678,0.563156316635,-2.46462315571,2437.407
1546,-8.74131496678,0.563156316635,-2.46462315571,2437.417
1547,-8.76379513762,0.545016944737,-2.46203687545,2437.437
1548,-8.76379513762,0.545016944737,-2.46203687545,2437.447
1549,-8.79186243018,0.522286696933,-2.45871372913,2437.477
1550,-8.79186243018,0.522286696933,-2.45871372913,2437.487
1551,-8.79186243018,0.522286696933,-2.45871372913,2437.507
1552,-8.81986481469,0.4994629659,-2.45541615209,2437.527
1553,-8.81986481469,0.4994629659,-2.45541615209,2437.547
1554,-8.81986481469,0.4994629659,-2.45541615209,2437.557
1555,-8.84221072676,0.481156368046,-2.45264318348,2437.567
1556,-8.8533423299,0.471965686568,-2.45118297662,2437.587
1557,-8.8533423299,0.471965686568,-2.45118297662,2437.607
1558,-8.87560746754,0.453518841132,-2.4484482655,2437.627
1559,-8.87560746754,0.453518841132,-2.4484482655,2437.647
1560,-8.87560746754,0.453518841132,-2.4484482655,2437.657
1561,-8.87560746754,0.453518841132,-2.4484482655,2437.667
1562,-8.89786753024,0.434995387085,-2.44566665714,2437.677
1563,-8.89786753024,0.434995387085,-2.44566665714,2437.687
1564,-8.89786753024,0.434995387085,-2.44566665714,2437.697
1565,-8.92558810255,0.411784797983,-2.44216345358,2437.717
1566,-8.92558810255,0.411784797983,-2.44216345358,2437.737
1567,-8.92558810255,0.411784797983,-2.44216345358,2437.747
1568,-8.94765263775,0.393075113192,-2.43937158795,2437.757
1569,-8.95873470808,0.383681760968,-2.43796713412,2437.777
1570,-8.95873470808,0.383681760968,-2.43796713412,2437.797
1571,-8.95873470808,0.383681760968,-2.43796713412,2437.807
1572,-8.98083743954,0.364927733396,-2.4350044464,2437.817
1573,-8.98083743954,0.364927733396,-2.4350044464,2437.837
1574,-8.98083743954,0.364927733396,-2.4350044464,2437.847
1575,-8.98083743954,0.364927733396,-2.4350044464,2437.857
1576,-9.00830931081,0.341379397189,-2.43152889987,2437.877
1577,-9.00830931081,0.341379397189,-2.43152889987,2437.887
1578,-9.00830931081,0.341379397189,-2.43152889987,2437.897
1579,-9.03572793606,0.317706926499,-2.42801981685,2437.917
1580,-9.04120049739,0.312972002597,-2.42730107413,2437.927
1581,-9.04120049739,0.312972002597,-2.42730107413,2437.947
1582,-9.04120049739,0.312972002597,-2.42730107413,2437.957
1583,-9.06307223854,0.293939043398,-2.42448129114,2437.967
1584,-9.06307223854,0.293939043398,-2.42448129114,2437.977
1585,-9.06307223854,0.293939043398,-2.42448129114,2437.997
1586,-9.0848750939,0.274859711141,-2.42174800138,2438.017
1587,-9.0848750939,0.274859711141,-2.42174800138,2438.027
1588,-9.0848750939,0.274859711141,-2.42174800138,2438.037
1589,-9.10668050439,0.255726101934,-2.41884426624,2438.067
1590,-9.10668050439,0.255726101934,-2.41884426624,2438.077
1591,-9.10668050439,0.255726101934,-2.41884426624,2438.087
1592,-9.13387671244,0.23167717342,-2.41519531756,2438.097
1593,-9.13387671244,0.23167717342,-2.41519531756,2438.117
1594,-9.13387671244,0.23167717342,-2.41519531756,2438.127
1595,-9.16094061516,0.207536131132,-2.41166980638,2438.147
1596,-9.16637488516,0.202694351712,-2.41090812085,2438.157
1597,-9.16637488516,0.202694351712,-2.41090812085,2438.167
1598,-9.16637488516,0.202694351712,-2.41090812085,2438.177
1599,-9.16637488516,0.202694351712,-2.41090812085,2438.187
1600,-9.1879518583,0.18328988795,-2.40794889275,2438.207
1601,-9.1879518583,0.18328988795,-2.40794889275,2438.217
1602,-9.1879518583,0.18328988795,-2.40794889275,2438.227
1603,-9.1879518583,0.18328988795,-2.40794889275,2438.237
1604,-9.20950991733,0.163875354241,-2.40480695675,2438.247
1605,-9.20950991733,0.163875354241,-2.40480695675,2438.257
1606,-9.20950991733,0.163875354241,-2.40480695675,2438.267
1607,-9.23097987465,0.14432200979,-2.40182927969,2438.277
1608,-9.23097987465,0.14432200979,-2.40182927969,2438.297
1609,-9.23097987465,0.14432200979,-2.40182927969,2438.307
1610,-9.23097987465,0.14432200979,-2.40182927969,2438.317
1611,-9.25780799405,0.119748220671,-2.39796377805,2438.337
1612,-9.25780799405,0.119748220671,-2.39796377805,2438.347
1613,-9.28455698734,0.095085414107,-2.39420137616,2438.377
1614,-9.28986277771,0.0901390611922,-2.39347010577,2438.407
1615,-9.31111793851,0.0703031526376,-2.39062320883,2438.437
1616,-9.31111793851,0.0703031526376,-2.39062320883,2438.447
1617,-9.31111793851,0.0703031526376,-2.39062320883,2438.457
1618,-9.33237217367,0.050436300596,-2.38781592901,2438.477
1619,-9.33237217367,0.050436300596,-2.38781592901,2438.487
1620,-9.33237217367,0.050436300596,-2.38781592901,2438.497
1621,-9.35886500441,0.0254687918235,-2.38431754413,2438.517
1622,-9.35886500441,0.0254687918235,-2.38431754413,2438.527
1623,-9.35886500441,0.0254687918235,-2.38431754413,2438.537
1624,-9.35886500441,0.0254687918235,-2.38431754413,2438.557
1625,-9.38524124836,0.000401654992948,-2.38071677959,2438.567
1626,-9.39052817311,-0.00462949803172,-2.38003475131,2438.587
1627,-9.39052817311,-0.00462949803172,-2.38003475131,2438.597
1628,-9.39052817311,-0.00462949803172,-2.38003475131,2438.617
1629,-9.41163308325,-0.0247636421693,-2.3770668565,2438.627
1630,-9.41163308325,-0.0247636421693,-2.3770668565,2438.637
1631,-9.41163308325,-0.0247636421693,-2.3770668565,2438.647
1632,-9.41163308325,-0.0247636421693,-2.3770668565,2438.657
1633,-9.43791551886,-0.0500407634906,-2.37352826993,2438.677
1634,-9.43791551886,-0.0500407634906,-2.37352826993,2438.687
1635,-9.43791551886,-0.0500407634906,-2.37352826993,2438.697
1636,-9.46408906366,-0.0754180887934,-2.36992278985,2438.717
1637,-9.46933224664,-0.0805060085331,-2.36921426014,2438.727
1638,-9.46933224664,-0.0805060085331,-2.36921426014,2438.737
1639,-9.46933224664,-0.0805060085331,-2.36921426014,2438.757
1640,-9.49022675314,-0.100884377766,-2.36639217372,2438.777
1641,-9.49022675314,-0.100884377766,-2.36639217372,2438.787
1642,-9.51099152883,-0.121297405594,-2.36351931339,2438.817
1643,-9.51099152883,-0.121297405594,-2.36351931339,2438.837
1644,-9.53693893471,-0.14698693287,-2.3597895975,2438.857
1645,-9.53693893471,-0.14698693287,-2.3597895975,2438.877
1646,-9.53693893471,-0.14698693287,-2.3597895975,2438.887
1647,-9.56281813795,-0.172792340154,-2.35635218791,2438.907
1648,-9.56798712966,-0.177956312333,-2.35570525919,2438.917
1649,-9.56798712966,-0.177956312333,-2.35570525919,2438.927
1650,-9.56798712966,-0.177956312333,-2.35570525919,2438.937
1651,-9.56798712966,-0.177956312333,-2.35570525919,2438.947
1652,-9.58863294127,-0.198672639434,-2.35292456225,2438.967
1653,-9.58863294127,-0.198672639434,-2.35292456225,2438.977
1654,-9.58863294127,-0.198672639434,-2.35292456225,2438.997
1655,-9.60918137115,-0.219452077777,-2.35005357078,2439.007
1656,-9.60918137115,-0.219452077777,-2.35005357078,2439.017
1657,-9.60918137115,-0.219452077777,-2.35005357078,2439.037
1658,-9.62976074354,-0.240272257169,-2.34741904667,2439.057
1659,-9.62976074354,-0.240272257169,-2.34741904667,2439.077
1660,-9.65530561282,-0.26642789601,-2.34394002078,2439.087
1661,-9.65530561282,-0.26642789601,-2.34394002078,2439.097
1662,-9.65530561282,-0.26642789601,-2.34394002078,2439.107
1663,-9.65530561282,-0.26642789601,-2.34394002078,2439.117
1664,-9.67572319935,-0.287409301886,-2.34128673642,2439.127
1665,-9.68081928255,-0.292650709062,-2.34064290534,2439.137
1666,-9.68589883296,-0.297913098178,-2.3400214176,2439.157
1667,-9.68589883296,-0.297913098178,-2.3400214176,2439.177
1668,-9.70621965626,-0.318956995374,-2.33738590558,2439.187
1669,-9.70621965626,-0.318956995374,-2.33738590558,2439.197
1670,-9.70621965626,-0.318956995374,-2.33738590558,2439.227
1671,-9.72654815166,-0.340044388133,-2.33477851332,2439.247
1672,-9.72654815166,-0.340044388133,-2.33477851332,2439.267
1673,-9.74677179291,-0.361215422369,-2.33224735085,2439.277
1674,-9.74677179291,-0.361215422369,-2.33224735085,2439.287
1675,-9.74677179291,-0.361215422369,-2.33224735085,2439.297
