\relax 
\providecommand\hyper@newdestlabel[2]{}
\providecommand*{\memsetcounter}[2]{}
\catcode `"\active 
\providecommand\HyperFirstAtBeginDocument{\AtBeginDocument}
\HyperFirstAtBeginDocument{\ifx\hyper@anchor\@undefined
\global\let\oldcontentsline\contentsline
\gdef\contentsline#1#2#3#4{\oldcontentsline{#1}{#2}{#3}}
\global\let\oldnewlabel\newlabel
\gdef\newlabel#1#2{\newlabelxx{#1}#2}
\gdef\newlabelxx#1#2#3#4#5#6{\oldnewlabel{#1}{{#2}{#3}}}
\AtEndDocument{\ifx\hyper@anchor\@undefined
\let\contentsline\oldcontentsline
\let\newlabel\oldnewlabel
\fi}
\fi}
\global\let\hyper@last\relax 
\gdef\HyperFirstAtBeginDocument#1{#1}
\providecommand\HyField@AuxAddToFields[1]{}
\providecommand\HyField@AuxAddToCoFields[2]{}
\@writefile{toc}{\changetocdepth  {2}}
\babel@aux{spanish}{}
\@writefile{toc}{\contentsline {chapter}{\'{I}ndice general}{xi}{section*.1}}
\citation{AutonomousMobileRobots}
\citation{AutonomousMobileRobots}
\citation{sensores}
\citation{rotacion}
\citation{PurePersuit_graph}
\citation{profeLeo}
\citation{profeLeo}
\citation{v2b}
\citation{v3a}
\citation{Braitenberg}
\citation{ros4}
\citation{gazebo3}
\citation{neobotix2}
\citation{neobotix1}
\citation{S300}
\@writefile{toc}{\contentsline {chapter}{\'{I}ndice de figuras}{xiii}{section*.2}}
\@writefile{toc}{\contentsline {chapter}{\'{I}ndice de tablas}{xiv}{section*.3}}
\citation{WorldRobots,LandVehicles}
\citation{InDoorVehicles,AutonomousMobileRobots}
\citation{profeLeo}
\@writefile{lof}{\addvspace {10pt}}
\@writefile{lot}{\addvspace {10pt}}
\@writefile{toc}{\contentsline {chapter}{\chapternumberline {1}Introducci\IeC {\'o}n}{1}{chapter.1}}
\newlabel{C:introduccion}{{\M@TitleReference {1}{Introducci\IeC {\'o}n}}{1}{Introducción}{chapter.1}{}}
\@writefile{toc}{\contentsline {section}{\numberline {1.1}Alcances del proyecto}{1}{section.1.1}}
\@writefile{toc}{\contentsline {section}{\numberline {1.2}Justificaci\IeC {\'o}n}{2}{section.1.2}}
\@writefile{toc}{\contentsline {section}{\numberline {1.3}Objetivo general}{2}{section.1.3}}
\@writefile{toc}{\contentsline {section}{\numberline {1.4}Objetivos espec\IeC {\'\i }ficos}{2}{section.1.4}}
\@writefile{toc}{\contentsline {section}{\numberline {1.5}Metodolog\IeC {\'\i }a}{3}{section.1.5}}
\@writefile{toc}{\contentsline {section}{\numberline {1.6}Organizaci\IeC {\'o}n del documento}{3}{section.1.6}}
\citation{AutonomousMobileRobots}
\citation{AutonomousMobileRobots}
\citation{navegacion1}
\citation{AutonomousMobileRobots}
\citation{AutonomousMobileRobots}
\@writefile{lof}{\addvspace {10pt}}
\@writefile{lot}{\addvspace {10pt}}
\@writefile{toc}{\contentsline {chapter}{\chapternumberline {2}Marco Te\IeC {\'o}rico}{5}{chapter.2}}
\newlabel{C:antecedentes}{{\M@TitleReference {2}{Marco Te\IeC {\'o}rico}}{5}{Marco Teórico}{chapter.2}{}}
\@writefile{toc}{\contentsline {section}{\numberline {2.1}Navegaci\IeC {\'o}n de robots aut\IeC {\'o}nomos}{5}{section.2.1}}
\@writefile{lof}{\contentsline {figure}{\numberline {2.1}{\ignorespaces \IeC {\textquestiondown }C\IeC {\'o}mo se localiza un robot? \cite  {AutonomousMobileRobots}\relax }}{5}{figure.caption.4}}
\providecommand*\caption@xref[2]{\@setref\relax\@undefined{#1}}
\newlabel{F:donde_estoy}{{\M@TitleReference {2.1}{\IeC {\textquestiondown }C\IeC {\'o}mo se localiza un robot? \cite  {AutonomousMobileRobots}\relax }}{5}{¿Cómo se localiza un robot? \cite {AutonomousMobileRobots}\relax }{figure.caption.4}{}}
\citation{AutonomousMobileRobots}
\citation{profeLeo}
\citation{sensores}
\citation{sensores}
\@writefile{lof}{\contentsline {figure}{\numberline {2.2}{\ignorespaces Diagrama de flujo de control para la navegaci\IeC {\'o}n de robots aut\IeC {\'o}nomos. \cite  {AutonomousMobileRobots}\relax }}{6}{figure.caption.5}}
\newlabel{F:esquema}{{\M@TitleReference {2.2}{Diagrama de flujo de control para la navegaci\IeC {\'o}n de robots aut\IeC {\'o}nomos. \cite  {AutonomousMobileRobots}\relax }}{6}{Diagrama de flujo de control para la navegación de robots autónomos. \cite {AutonomousMobileRobots}\relax }{figure.caption.5}{}}
\@writefile{toc}{\contentsline {section}{\numberline {2.2}Robot m\IeC {\'o}vil en configuraci\IeC {\'o}n diferencial}{6}{section.2.2}}
\@writefile{toc}{\contentsline {subsection}{\numberline {2.2.1}Modelado}{6}{subsection.2.2.1}}
\citation{kinematicDifferential}
\citation{kinematicDifferential}
\@writefile{lof}{\contentsline {figure}{\numberline {2.3}{\ignorespaces Diagrama de la cinem\IeC {\'a}tica de un robot diferencial. \cite  {sensores}\relax }}{7}{figure.caption.6}}
\newlabel{F:diferencial}{{\M@TitleReference {2.3}{Diagrama de la cinem\IeC {\'a}tica de un robot diferencial. \cite  {sensores}\relax }}{7}{Diagrama de la cinemática de un robot diferencial. \cite {sensores}\relax }{figure.caption.6}{}}
\newlabel{diff1}{{2.1}{7}{Modelado}{equation.2.2.1}{}}
\newlabel{diff2}{{2.2}{7}{Modelado}{equation.2.2.2}{}}
\citation{LandVehicles}
\citation{rotacion}
\citation{rotacion}
\citation{PurePersuit_Craig}
\newlabel{diff3}{{2.3}{8}{Modelado}{equation.2.2.3}{}}
\@writefile{toc}{\contentsline {subsection}{\numberline {2.2.2}Marcos de referencia y transformaciones}{8}{subsection.2.2.2}}
\newlabel{frames}{{\M@TitleReference {2.2.2}{Marcos de referencia y transformaciones}}{8}{Marcos de referencia y transformaciones}{subsection.2.2.2}{}}
\newlabel{referencia}{{2.5}{8}{Marcos de referencia y transformaciones}{equation.2.2.5}{}}
\@writefile{lof}{\contentsline {figure}{\numberline {2.4}{\ignorespaces (a) Rotar un punto a lo largo del eje $z$. (b) Rotar un punto a lo largo del eje $y$. (c) Rotar un punto a lo largo del eje $x$.\cite  {rotacion}.\relax }}{8}{figure.caption.7}}
\newlabel{F:rotaciones}{{\M@TitleReference {2.4}{(a) Rotar un punto a lo largo del eje $z$. (b) Rotar un punto a lo largo del eje $y$. (c) Rotar un punto a lo largo del eje $x$.\cite  {rotacion}.\relax }}{8}{(a) Rotar un punto a lo largo del eje $z$. (b) Rotar un punto a lo largo del eje $y$. (c) Rotar un punto a lo largo del eje $x$.\cite {rotacion}.\relax }{figure.caption.7}{}}
\citation{PurePersuit_eqs}
\citation{PurePersuit_graph}
\citation{PurePersuit_graph}
\@writefile{toc}{\contentsline {section}{\numberline {2.3}Algoritmos de seguimiento de trayectoria}{9}{section.2.3}}
\@writefile{toc}{\contentsline {subsection}{\numberline {2.3.1}Algoritmo de persecuci\IeC {\'o}n pura}{9}{subsection.2.3.1}}
\newlabel{sec:persecucion_pura}{{\M@TitleReference {2.3.1}{Algoritmo de persecuci\IeC {\'o}n pura}}{9}{Algoritmo de persecución pura}{subsection.2.3.1}{}}
\@writefile{lof}{\contentsline {figure}{\numberline {2.5}{\ignorespaces Algoritmo de persecuci\IeC {\'o}n pura. \cite  {PurePersuit_graph}\relax }}{9}{figure.caption.8}}
\newlabel{F:pure_persuit}{{\M@TitleReference {2.5}{Algoritmo de persecuci\IeC {\'o}n pura. \cite  {PurePersuit_graph}\relax }}{9}{Algoritmo de persecución pura. \cite {PurePersuit_graph}\relax }{figure.caption.8}{}}
\newlabel{radio}{{2.7}{9}{Algoritmo de persecución pura}{equation.2.3.7}{}}
\newlabel{pitagoras}{{2.8}{9}{Algoritmo de persecución pura}{equation.2.3.8}{}}
\newlabel{pitagoras2}{{2.9}{9}{Algoritmo de persecución pura}{equation.2.3.9}{}}
\newlabel{sust}{{2.10}{9}{Algoritmo de persecución pura}{equation.2.3.10}{}}
\newlabel{pn}{{2.11}{10}{Algoritmo de persecución pura}{equation.2.3.11}{}}
\newlabel{despeje1}{{2.12}{10}{Algoritmo de persecución pura}{equation.2.3.12}{}}
\newlabel{despeje2}{{2.13}{10}{Algoritmo de persecución pura}{equation.2.3.13}{}}
\newlabel{despej3}{{2.14}{10}{Algoritmo de persecución pura}{equation.2.3.14}{}}
\newlabel{despej4}{{2.15}{10}{Algoritmo de persecución pura}{equation.2.3.15}{}}
\newlabel{delta_x}{{2.16}{10}{Algoritmo de persecución pura}{equation.2.3.16}{}}
\newlabel{vd}{{2.17}{10}{Algoritmo de persecución pura}{equation.2.3.17}{}}
\newlabel{vi}{{2.18}{10}{Algoritmo de persecución pura}{equation.2.3.18}{}}
\citation{profeLeo}
\citation{profeLeo}
\@writefile{toc}{\contentsline {subsection}{\numberline {2.3.2}Algoritmo de punto desentralizado}{11}{subsection.2.3.2}}
\newlabel{sec:pt_descentralizado}{{\M@TitleReference {2.3.2}{Algoritmo de punto desentralizado}}{11}{Algoritmo de punto desentralizado}{subsection.2.3.2}{}}
\@writefile{lof}{\contentsline {figure}{\numberline {2.6}{\ignorespaces Puntos de inter\IeC {\'e}s para el control por punto descentralizado. \cite  {profeLeo}.\relax }}{11}{figure.caption.10}}
\newlabel{F:punto_descentralizado}{{\M@TitleReference {2.6}{Puntos de inter\IeC {\'e}s para el control por punto descentralizado. \cite  {profeLeo}.\relax }}{11}{Puntos de interés para el control por punto descentralizado. \cite {profeLeo}.\relax }{figure.caption.10}{}}
\citation{profeLeo}
\citation{profeLeo}
\citation{profeLeo}
\@writefile{lof}{\contentsline {figure}{\numberline {2.7}{\ignorespaces Diagrama de bloques para el algoritmo de control de punto descentralizado. \cite  {profeLeo}\relax }}{12}{figure.caption.11}}
\newlabel{F:diagrama_de_bloques_PD}{{\M@TitleReference {2.7}{Diagrama de bloques para el algoritmo de control de punto descentralizado. \cite  {profeLeo}\relax }}{12}{Diagrama de bloques para el algoritmo de control de punto descentralizado. \cite {profeLeo}\relax }{figure.caption.11}{}}
\newlabel{pos}{{2.19}{12}{Algoritmo de punto desentralizado}{equation.2.3.19}{}}
\newlabel{vel_PD}{{2.20}{12}{Algoritmo de punto desentralizado}{equation.2.3.20}{}}
\newlabel{vel_PD_sin_v}{{2.21}{12}{Algoritmo de punto desentralizado}{equation.2.3.21}{}}
\citation{Braitenberg}
\newlabel{inversa}{{2.22}{13}{Algoritmo de punto desentralizado}{equation.2.3.22}{}}
\@writefile{toc}{\contentsline {section}{\numberline {2.4}Algoritmos de evasi\IeC {\'o}n de obst\IeC {\'a}culos}{13}{section.2.4}}
\@writefile{toc}{\contentsline {subsection}{\numberline {2.4.1}Veh\IeC {\'\i }culos de Braintenberg}{13}{subsection.2.4.1}}
\newlabel{sec:braintenberg}{{\M@TitleReference {2.4.1}{Veh\IeC {\'\i }culos de Braintenberg}}{13}{Vehículos de Braintenberg}{subsection.2.4.1}{}}
\@writefile{toc}{\contentsline {subsubsection}{Moverse (veh\IeC {\'\i }culo 1)}{13}{section*.13}}
\@writefile{lof}{\contentsline {figure}{\numberline {2.8}{\ignorespaces Veh\IeC {\'\i }culo 1 de Braintenberg.\relax }}{14}{figure.caption.14}}
\newlabel{F:VB1}{{\M@TitleReference {2.8}{Veh\IeC {\'\i }culo 1 de Braintenberg.\relax }}{14}{Vehículo 1 de Braintenberg.\relax }{figure.caption.14}{}}
\@writefile{toc}{\contentsline {subsubsection}{Miedo y agresi\IeC {\'o}n (veh\IeC {\'\i }culo 2)}{14}{section*.16}}
\citation{Braitenberg}
\@writefile{lof}{\contentsline {figure}{\numberline {2.9}{\ignorespaces Veh\IeC {\'\i }culo de Braintenberg 2a.\relax }}{15}{figure.caption.17}}
\newlabel{F:VB2a}{{\M@TitleReference {2.9}{Veh\IeC {\'\i }culo de Braintenberg 2a.\relax }}{15}{Vehículo de Braintenberg 2a.\relax }{figure.caption.17}{}}
\citation{v2b}
\citation{v2b}
\citation{Braitenberg}
\@writefile{lof}{\contentsline {figure}{\numberline {2.10}{\ignorespaces Veh\IeC {\'\i }culo de Braintenberg 2b. \cite  {v2b}\relax }}{16}{figure.caption.19}}
\newlabel{F:VB2b}{{\M@TitleReference {2.10}{Veh\IeC {\'\i }culo de Braintenberg 2b. \cite  {v2b}\relax }}{16}{Vehículo de Braintenberg 2b. \cite {v2b}\relax }{figure.caption.19}{}}
\citation{v3a}
\citation{v3a}
\@writefile{toc}{\contentsline {subsubsection}{Amor (veh\IeC {\'\i }culo 3)}{17}{section*.21}}
\@writefile{lof}{\contentsline {figure}{\numberline {2.11}{\ignorespaces Veh\IeC {\'\i }culo de Braintenberg 3a. \cite  {v3a}\relax }}{17}{figure.caption.22}}
\newlabel{F:VB3a}{{\M@TitleReference {2.11}{Veh\IeC {\'\i }culo de Braintenberg 3a. \cite  {v3a}\relax }}{17}{Vehículo de Braintenberg 3a. \cite {v3a}\relax }{figure.caption.22}{}}
\citation{Braitenberg}
\citation{Braitenberg}
\@writefile{lof}{\contentsline {figure}{\numberline {2.12}{\ignorespaces Veh\IeC {\'\i }culo de Braintenberg 3. \cite  {Braitenberg}\relax }}{18}{figure.caption.24}}
\newlabel{F:VB3aYb}{{\M@TitleReference {2.12}{Veh\IeC {\'\i }culo de Braintenberg 3. \cite  {Braitenberg}\relax }}{18}{Vehículo de Braintenberg 3. \cite {Braitenberg}\relax }{figure.caption.24}{}}
\citation{inproceedings,ros1,ros2}
\citation{ros1,ros3}
\citation{ros4}
\citation{ros4}
\citation{ros4}
\@writefile{lof}{\addvspace {10pt}}
\@writefile{lot}{\addvspace {10pt}}
\@writefile{toc}{\contentsline {chapter}{\chapternumberline {3}Herramientas utilizadas}{19}{chapter.3}}
\newlabel{C:desarrollo}{{\M@TitleReference {3}{Herramientas utilizadas}}{19}{Herramientas utilizadas}{chapter.3}{}}
\@writefile{toc}{\contentsline {section}{\numberline {3.1}Software de simulaci\IeC {\'o}n rob\IeC {\'o}tica}{19}{section.3.1}}
\@writefile{toc}{\contentsline {subsection}{\numberline {3.1.1}Robotic Operating System (ROS)}{19}{subsection.3.1.1}}
\newlabel{ros}{{\M@TitleReference {3.1.1}{Robotic Operating System (ROS)}}{19}{Robotic Operating System (ROS)}{subsection.3.1.1}{}}
\@writefile{lof}{\contentsline {figure}{\numberline {3.1}{\ignorespaces Funcionamiento de los conceptos b\IeC {\'a}sicos de ROS. \cite  {ros4}\relax }}{20}{figure.caption.26}}
\newlabel{F:conceptos_ros}{{\M@TitleReference {3.1}{Funcionamiento de los conceptos b\IeC {\'a}sicos de ROS. \cite  {ros4}\relax }}{20}{Funcionamiento de los conceptos básicos de ROS. \cite {ros4}\relax }{figure.caption.26}{}}
\@writefile{toc}{\contentsline {subsubsection}{Nivel de sistema de archivos}{20}{section*.27}}
\@writefile{toc}{\contentsline {subsubsection}{Nivel gr\IeC {\'a}fico de c\IeC {\'a}lculo}{20}{section*.28}}
\citation{gazebo1}
\@writefile{toc}{\contentsline {subsubsection}{Nivel de comunidad}{21}{section*.29}}
\@writefile{toc}{\contentsline {subsection}{\numberline {3.1.2}Gazebo}{22}{subsection.3.1.2}}
\@writefile{lof}{\contentsline {figure}{\numberline {3.2}{\ignorespaces Interfaz gr\IeC {\'a}fica del software de simulaci\IeC {\'o}n Gazebo.\relax }}{22}{figure.caption.30}}
\newlabel{F:gazebo_sim}{{\M@TitleReference {3.2}{Interfaz gr\IeC {\'a}fica del software de simulaci\IeC {\'o}n Gazebo.\relax }}{22}{Interfaz gráfica del software de simulación Gazebo.\relax }{figure.caption.30}{}}
\citation{gazebo2}
\citation{gazebo3,ros5}
\citation{gazebo3}
\citation{gazebo3}
\@writefile{toc}{\contentsline {subsection}{\numberline {3.1.3}Integraci\IeC {\'o}n ROS y Gazebo}{23}{subsection.3.1.3}}
\newlabel{gazebo_y_ros}{{\M@TitleReference {3.1.3}{Integraci\IeC {\'o}n ROS y Gazebo}}{23}{Integración ROS y Gazebo}{subsection.3.1.3}{}}
\citation{ros6}
\@writefile{lof}{\contentsline {figure}{\numberline {3.3}{\ignorespaces Diagrama de la interfaz del paquete gazebo\_ros\_pkgs. \cite  {gazebo3}\relax }}{24}{figure.caption.31}}
\newlabel{F:gazebo_ros}{{\M@TitleReference {3.3}{Diagrama de la interfaz del paquete gazebo\_ros\_pkgs. \cite  {gazebo3}\relax }}{24}{Diagrama de la interfaz del paquete gazebo\_ros\_pkgs. \cite {gazebo3}\relax }{figure.caption.31}{}}
\citation{neobotix3}
\citation{neobotix2}
\citation{neobotix2}
\citation{neobotix1}
\citation{neobotix1}
\@writefile{toc}{\contentsline {section}{\numberline {3.2}El robot MP-500}{25}{section.3.2}}
\@writefile{lof}{\contentsline {figure}{\numberline {3.4}{\ignorespaces Robot diferencial MP-500 dentro de la simulaci\IeC {\'o}n. \cite  {neobotix2}\relax }}{25}{figure.caption.32}}
\newlabel{F:mp_500_sim}{{\M@TitleReference {3.4}{Robot diferencial MP-500 dentro de la simulaci\IeC {\'o}n. \cite  {neobotix2}\relax }}{25}{Robot diferencial MP-500 dentro de la simulación. \cite {neobotix2}\relax }{figure.caption.32}{}}
\citation{S300}
\citation{S300}
\@writefile{lof}{\contentsline {figure}{\numberline {3.5}{\ignorespaces Medidas del robot diferencial MP-500. \cite  {neobotix1}\relax }}{26}{figure.caption.33}}
\newlabel{F:medidas}{{\M@TitleReference {3.5}{Medidas del robot diferencial MP-500. \cite  {neobotix1}\relax }}{26}{Medidas del robot diferencial MP-500. \cite {neobotix1}\relax }{figure.caption.33}{}}
\@writefile{lof}{\contentsline {figure}{\numberline {3.6}{\ignorespaces Sensor l\IeC {\'a}ser S300 de Sick Sensor Intelligence. \cite  {S300}\relax }}{26}{figure.caption.34}}
\newlabel{F:sensor}{{\M@TitleReference {3.6}{Sensor l\IeC {\'a}ser S300 de Sick Sensor Intelligence. \cite  {S300}\relax }}{26}{Sensor láser S300 de Sick Sensor Intelligence. \cite {S300}\relax }{figure.caption.34}{}}
\@writefile{lof}{\addvspace {10pt}}
\@writefile{lot}{\addvspace {10pt}}
\@writefile{toc}{\contentsline {chapter}{\chapternumberline {4}Algoritmos implementados}{27}{chapter.4}}
\newlabel{C:Algoritmos}{{\M@TitleReference {4}{Algoritmos implementados}}{27}{Algoritmos implementados}{chapter.4}{}}
\@writefile{toc}{\contentsline {section}{\numberline {4.1}Generalidades}{27}{section.4.1}}
\@writefile{toc}{\contentsline {section}{\numberline {4.2}Algoritmos de seguimiento de trayectoria}{28}{section.4.2}}
\@writefile{toc}{\contentsline {subsection}{\numberline {4.2.1}Punto descentralizado}{28}{subsection.4.2.1}}
\@writefile{lot}{\contentsline {table}{\numberline {4.1}{\ignorespaces Implementaci\IeC {\'o}n del algoritmo de punto descentralizado\relax }}{28}{table.caption.35}}
\newlabel{psedo:pt_desc}{{\M@TitleReference {4.1}{Implementaci\IeC {\'o}n del algoritmo de punto descentralizado\relax }}{28}{Implementación del algoritmo de punto descentralizado\relax }{table.caption.35}{}}
\@writefile{lof}{\contentsline {figure}{\numberline {4.1}{\ignorespaces Diagrama de clases de la implementaci\IeC {\'o}n del algoritmo de punto descentralizado.\relax }}{29}{figure.caption.36}}
\newlabel{class:pt_desc}{{\M@TitleReference {4.1}{Diagrama de clases de la implementaci\IeC {\'o}n del algoritmo de punto descentralizado.\relax }}{29}{Diagrama de clases de la implementación del algoritmo de punto descentralizado.\relax }{figure.caption.36}{}}
\@writefile{lof}{\contentsline {figure}{\numberline {4.2}{\ignorespaces Diagrama de nodos y t\IeC {\'o}picos de la implementaci\IeC {\'o}n del algoritmo de punto descentralizado.\relax }}{30}{figure.caption.37}}
\newlabel{nodes:pt_desc}{{\M@TitleReference {4.2}{Diagrama de nodos y t\IeC {\'o}picos de la implementaci\IeC {\'o}n del algoritmo de punto descentralizado.\relax }}{30}{Diagrama de nodos y tópicos de la implementación del algoritmo de punto descentralizado.\relax }{figure.caption.37}{}}
\@writefile{toc}{\contentsline {subsection}{\numberline {4.2.2}Persecuci\IeC {\'o}n pura}{30}{subsection.4.2.2}}
\@writefile{lof}{\contentsline {figure}{\numberline {4.3}{\ignorespaces Diagrama de clases de la implementaci\IeC {\'o}n del algoritmo de persecuci\IeC {\'o}n pura.\relax }}{30}{figure.caption.39}}
\newlabel{class:p_p}{{\M@TitleReference {4.3}{Diagrama de clases de la implementaci\IeC {\'o}n del algoritmo de persecuci\IeC {\'o}n pura.\relax }}{30}{Diagrama de clases de la implementación del algoritmo de persecución pura.\relax }{figure.caption.39}{}}
\@writefile{lot}{\contentsline {table}{\numberline {4.2}{\ignorespaces Implementaci\IeC {\'o}n del algoritmo de persecuci\IeC {\'o}n pura\relax }}{31}{table.caption.38}}
\newlabel{psedo:p_p}{{\M@TitleReference {4.2}{Implementaci\IeC {\'o}n del algoritmo de persecuci\IeC {\'o}n pura\relax }}{31}{Implementación del algoritmo de persecución pura\relax }{table.caption.38}{}}
\@writefile{lof}{\contentsline {figure}{\numberline {4.4}{\ignorespaces Diagrama de nodos y t\IeC {\'o}picos de la implementaci\IeC {\'o}n del algoritmo de persecuci\IeC {\'o}n pura.\relax }}{32}{figure.caption.40}}
\newlabel{nodes:p_p}{{\M@TitleReference {4.4}{Diagrama de nodos y t\IeC {\'o}picos de la implementaci\IeC {\'o}n del algoritmo de persecuci\IeC {\'o}n pura.\relax }}{32}{Diagrama de nodos y tópicos de la implementación del algoritmo de persecución pura.\relax }{figure.caption.40}{}}
\@writefile{toc}{\contentsline {section}{\numberline {4.3}Algoritmos de evasi\IeC {\'o}n de obst\IeC {\'a}culos}{32}{section.4.3}}
\@writefile{toc}{\contentsline {subsection}{\numberline {4.3.1}Veh\IeC {\'\i }culo de Braintenberg 2a: Miedo}{32}{subsection.4.3.1}}
\@writefile{lot}{\contentsline {table}{\numberline {4.3}{\ignorespaces Implementaci\IeC {\'o}n del algoritmo de Braintenber\relax }}{33}{table.caption.41}}
\newlabel{psedo:braintenberg}{{\M@TitleReference {4.3}{Implementaci\IeC {\'o}n del algoritmo de Braintenber\relax }}{33}{Implementación del algoritmo de Braintenber\relax }{table.caption.41}{}}
\@writefile{lof}{\contentsline {figure}{\numberline {4.5}{\ignorespaces Diagrama de nodos y t\IeC {\'o}picos de la implementaci\IeC {\'o}n del algoritmo de Braintneberg 2a.\relax }}{34}{figure.caption.42}}
\newlabel{nodes:braintenberg}{{\M@TitleReference {4.5}{Diagrama de nodos y t\IeC {\'o}picos de la implementaci\IeC {\'o}n del algoritmo de Braintneberg 2a.\relax }}{34}{Diagrama de nodos y tópicos de la implementación del algoritmo de Braintneberg 2a.\relax }{figure.caption.42}{}}
\@writefile{lof}{\addvspace {10pt}}
\@writefile{lot}{\addvspace {10pt}}
\@writefile{toc}{\contentsline {chapter}{\chapternumberline {5}Simulaci\IeC {\'o}n de los algoritmos implementados}{35}{chapter.5}}
\newlabel{C:Simulaci\IeC {\'o}n y resultados}{{\M@TitleReference {5}{Simulaci\IeC {\'o}n de los algoritmos implementados}}{35}{Simulación de los algoritmos implementados}{chapter.5}{}}
\@writefile{toc}{\contentsline {section}{\numberline {5.1}Generalidades de la simulaci\IeC {\'o}n}{35}{section.5.1}}
\@writefile{toc}{\contentsline {section}{\numberline {5.2}Pruebas realizadas}{35}{section.5.2}}
\@writefile{lof}{\contentsline {figure}{\numberline {5.1}{\ignorespaces Pista 1 utilizada para la simulaci\IeC {\'o}n de los algoritmos de seguimiento de trayectorias.\relax }}{36}{figure.caption.43}}
\newlabel{nodes:track1}{{\M@TitleReference {5.1}{Pista 1 utilizada para la simulaci\IeC {\'o}n de los algoritmos de seguimiento de trayectorias.\relax }}{36}{Pista 1 utilizada para la simulación de los algoritmos de seguimiento de trayectorias.\relax }{figure.caption.43}{}}
\@writefile{lof}{\contentsline {figure}{\numberline {5.2}{\ignorespaces Pista 2 utilizada para la simulaci\IeC {\'o}n del algoritmos de evasi\IeC {\'o}n de obst\IeC {\'a}culos.\relax }}{36}{figure.caption.44}}
\newlabel{nodes:track2}{{\M@TitleReference {5.2}{Pista 2 utilizada para la simulaci\IeC {\'o}n del algoritmos de evasi\IeC {\'o}n de obst\IeC {\'a}culos.\relax }}{36}{Pista 2 utilizada para la simulación del algoritmos de evasión de obstáculos.\relax }{figure.caption.44}{}}
\@writefile{lof}{\contentsline {figure}{\numberline {5.3}{\ignorespaces Pista 3 utilizada para la simulaci\IeC {\'o}n del algoritmos de evasi\IeC {\'o}n de obst\IeC {\'a}culos.\relax }}{37}{figure.caption.45}}
\newlabel{nodes:track3}{{\M@TitleReference {5.3}{Pista 3 utilizada para la simulaci\IeC {\'o}n del algoritmos de evasi\IeC {\'o}n de obst\IeC {\'a}culos.\relax }}{37}{Pista 3 utilizada para la simulación del algoritmos de evasión de obstáculos.\relax }{figure.caption.45}{}}
\@writefile{toc}{\contentsline {section}{\numberline {5.3}Resultados la simulaci\IeC {\'o}n de los algoritmos de seguimiento de trayectoria}{37}{section.5.3}}
\@writefile{toc}{\contentsline {subsection}{\numberline {5.3.1}Punto descentralizado}{37}{subsection.5.3.1}}
\@writefile{toc}{\contentsline {subsubsection}{Trayectoria cuadrada}{37}{section*.46}}
\@writefile{lof}{\contentsline {figure}{\numberline {5.4}{\ignorespaces Posici\IeC {\'o}n $(x,y)$ del robot durante la ejecuci\IeC {\'o}n de la trayectoria cuadrada.\relax }}{38}{figure.caption.47}}
\newlabel{dec_sq_xy}{{\M@TitleReference {5.4}{Posici\IeC {\'o}n $(x,y)$ del robot durante la ejecuci\IeC {\'o}n de la trayectoria cuadrada.\relax }}{38}{Posición $(x,y)$ del robot durante la ejecución de la trayectoria cuadrada.\relax }{figure.caption.47}{}}
\@writefile{lof}{\contentsline {figure}{\numberline {5.5}{\ignorespaces Posici\IeC {\'o}n angular del robot durante la ejecuci\IeC {\'o}n de la trayectoria cuadrada.\relax }}{38}{figure.caption.48}}
\newlabel{dec_sq_theta}{{\M@TitleReference {5.5}{Posici\IeC {\'o}n angular del robot durante la ejecuci\IeC {\'o}n de la trayectoria cuadrada.\relax }}{38}{Posición angular del robot durante la ejecución de la trayectoria cuadrada.\relax }{figure.caption.48}{}}
\@writefile{lot}{\contentsline {table}{\numberline {5.1}{\ignorespaces Desempe\IeC {\~n}o del algoritmo de punto descentralizado siguiendo una trayectoria cuadrada.\relax }}{39}{table.caption.49}}
\newlabel{time:sq_dec}{{\M@TitleReference {5.1}{Desempe\IeC {\~n}o del algoritmo de punto descentralizado siguiendo una trayectoria cuadrada.\relax }}{39}{Desempeño del algoritmo de punto descentralizado siguiendo una trayectoria cuadrada.\relax }{table.caption.49}{}}
\@writefile{toc}{\contentsline {subsubsection}{Trayectoria circular}{39}{section*.50}}
\@writefile{lof}{\contentsline {figure}{\numberline {5.6}{\ignorespaces Posici\IeC {\'o}n $(x,y)$ del robot durante la ejecuci\IeC {\'o}n de la trayectoria circular.\relax }}{39}{figure.caption.51}}
\newlabel{dec_cir_xy}{{\M@TitleReference {5.6}{Posici\IeC {\'o}n $(x,y)$ del robot durante la ejecuci\IeC {\'o}n de la trayectoria circular.\relax }}{39}{Posición $(x,y)$ del robot durante la ejecución de la trayectoria circular.\relax }{figure.caption.51}{}}
\@writefile{lof}{\contentsline {figure}{\numberline {5.7}{\ignorespaces Posici\IeC {\'o}n angular del robot durante la ejecuci\IeC {\'o}n de la trayectoria circular.\relax }}{40}{figure.caption.52}}
\newlabel{dec_cir_theta}{{\M@TitleReference {5.7}{Posici\IeC {\'o}n angular del robot durante la ejecuci\IeC {\'o}n de la trayectoria circular.\relax }}{40}{Posición angular del robot durante la ejecución de la trayectoria circular.\relax }{figure.caption.52}{}}
\@writefile{lot}{\contentsline {table}{\numberline {5.2}{\ignorespaces Desempe\IeC {\~n}o del algoritmo de punto descentralizado siguiendo una trayectoria circular.\relax }}{40}{table.caption.53}}
\newlabel{time:cir_dec}{{\M@TitleReference {5.2}{Desempe\IeC {\~n}o del algoritmo de punto descentralizado siguiendo una trayectoria circular.\relax }}{40}{Desempeño del algoritmo de punto descentralizado siguiendo una trayectoria circular.\relax }{table.caption.53}{}}
\@writefile{toc}{\contentsline {subsubsection}{Trayectoria de infinito}{40}{section*.54}}
\@writefile{lof}{\contentsline {figure}{\numberline {5.8}{\ignorespaces Posici\IeC {\'o}n $(x,y)$ del robot durante la ejecuci\IeC {\'o}n de la trayectoria de infinito.\relax }}{41}{figure.caption.55}}
\newlabel{dec_inf_xy}{{\M@TitleReference {5.8}{Posici\IeC {\'o}n $(x,y)$ del robot durante la ejecuci\IeC {\'o}n de la trayectoria de infinito.\relax }}{41}{Posición $(x,y)$ del robot durante la ejecución de la trayectoria de infinito.\relax }{figure.caption.55}{}}
\@writefile{lof}{\contentsline {figure}{\numberline {5.9}{\ignorespaces Posici\IeC {\'o}n angular del robot durante la ejecuci\IeC {\'o}n de la trayectoria de infinito.\relax }}{41}{figure.caption.56}}
\newlabel{dec_inf_theta}{{\M@TitleReference {5.9}{Posici\IeC {\'o}n angular del robot durante la ejecuci\IeC {\'o}n de la trayectoria de infinito.\relax }}{41}{Posición angular del robot durante la ejecución de la trayectoria de infinito.\relax }{figure.caption.56}{}}
\@writefile{lot}{\contentsline {table}{\numberline {5.3}{\ignorespaces Desempe\IeC {\~n}o del algoritmo de punto descentralizado siguiendo una trayectoria de infinito.\relax }}{42}{table.caption.57}}
\newlabel{time:inf_dec}{{\M@TitleReference {5.3}{Desempe\IeC {\~n}o del algoritmo de punto descentralizado siguiendo una trayectoria de infinito.\relax }}{42}{Desempeño del algoritmo de punto descentralizado siguiendo una trayectoria de infinito.\relax }{table.caption.57}{}}
\@writefile{toc}{\contentsline {subsection}{\numberline {5.3.2}Persecuci\IeC {\'o}n pura}{42}{subsection.5.3.2}}
\@writefile{toc}{\contentsline {subsubsection}{Trayectoria cuadrada}{42}{section*.58}}
\@writefile{lot}{\contentsline {table}{\numberline {5.4}{\ignorespaces Desempe\IeC {\~n}o del algoritmo de persecuci\IeC {\'o}n pura siguiendo una trayectoria de cuadrada.\relax }}{42}{table.caption.59}}
\newlabel{time:sq_pp}{{\M@TitleReference {5.4}{Desempe\IeC {\~n}o del algoritmo de persecuci\IeC {\'o}n pura siguiendo una trayectoria de cuadrada.\relax }}{42}{Desempeño del algoritmo de persecución pura siguiendo una trayectoria de cuadrada.\relax }{table.caption.59}{}}
\@writefile{lof}{\contentsline {figure}{\numberline {5.10}{\ignorespaces Posici\IeC {\'o}n $(x,y)$ del robot durante la ejecuci\IeC {\'o}n de la trayectoria cuadrada.\relax }}{43}{figure.caption.60}}
\newlabel{pp_sq_xy}{{\M@TitleReference {5.10}{Posici\IeC {\'o}n $(x,y)$ del robot durante la ejecuci\IeC {\'o}n de la trayectoria cuadrada.\relax }}{43}{Posición $(x,y)$ del robot durante la ejecución de la trayectoria cuadrada.\relax }{figure.caption.60}{}}
\@writefile{lof}{\contentsline {figure}{\numberline {5.11}{\ignorespaces Posici\IeC {\'o}n angular del robot durante la ejecuci\IeC {\'o}n de la trayectoria cuadrada.\relax }}{43}{figure.caption.61}}
\newlabel{pp_sq_theta}{{\M@TitleReference {5.11}{Posici\IeC {\'o}n angular del robot durante la ejecuci\IeC {\'o}n de la trayectoria cuadrada.\relax }}{43}{Posición angular del robot durante la ejecución de la trayectoria cuadrada.\relax }{figure.caption.61}{}}
\@writefile{toc}{\contentsline {subsubsection}{Trayectoria circular}{44}{section*.62}}
\@writefile{lot}{\contentsline {table}{\numberline {5.5}{\ignorespaces Desempe\IeC {\~n}o del algoritmo de persecuci\IeC {\'o}n pura siguiendo una trayectoria de circular.\relax }}{44}{table.caption.63}}
\newlabel{time:cir_pp}{{\M@TitleReference {5.5}{Desempe\IeC {\~n}o del algoritmo de persecuci\IeC {\'o}n pura siguiendo una trayectoria de circular.\relax }}{44}{Desempeño del algoritmo de persecución pura siguiendo una trayectoria de circular.\relax }{table.caption.63}{}}
\@writefile{lof}{\contentsline {figure}{\numberline {5.12}{\ignorespaces Posici\IeC {\'o}n $(x,y)$ del robot durante la ejecuci\IeC {\'o}n de la trayectoria circular.\relax }}{44}{figure.caption.64}}
\newlabel{pp_cir_xy}{{\M@TitleReference {5.12}{Posici\IeC {\'o}n $(x,y)$ del robot durante la ejecuci\IeC {\'o}n de la trayectoria circular.\relax }}{44}{Posición $(x,y)$ del robot durante la ejecución de la trayectoria circular.\relax }{figure.caption.64}{}}
\@writefile{lof}{\contentsline {figure}{\numberline {5.13}{\ignorespaces Posici\IeC {\'o}n angular del robot durante la ejecuci\IeC {\'o}n de la trayectoria circular.\relax }}{45}{figure.caption.65}}
\newlabel{pp_cir_theta}{{\M@TitleReference {5.13}{Posici\IeC {\'o}n angular del robot durante la ejecuci\IeC {\'o}n de la trayectoria circular.\relax }}{45}{Posición angular del robot durante la ejecución de la trayectoria circular.\relax }{figure.caption.65}{}}
\@writefile{toc}{\contentsline {subsubsection}{Trayectoria de infinito}{45}{section*.66}}
\@writefile{lot}{\contentsline {table}{\numberline {5.6}{\ignorespaces Desempe\IeC {\~n}o del algoritmo de persecuci\IeC {\'o}n pura siguiendo una trayectoria de infinito.\relax }}{45}{table.caption.67}}
\newlabel{time:inf_pp}{{\M@TitleReference {5.6}{Desempe\IeC {\~n}o del algoritmo de persecuci\IeC {\'o}n pura siguiendo una trayectoria de infinito.\relax }}{45}{Desempeño del algoritmo de persecución pura siguiendo una trayectoria de infinito.\relax }{table.caption.67}{}}
\@writefile{lof}{\contentsline {figure}{\numberline {5.14}{\ignorespaces Posici\IeC {\'o}n $(x,y)$ del robot durante la ejecuci\IeC {\'o}n de la trayectoria de infinito.\relax }}{46}{figure.caption.68}}
\newlabel{pp_inf_xy}{{\M@TitleReference {5.14}{Posici\IeC {\'o}n $(x,y)$ del robot durante la ejecuci\IeC {\'o}n de la trayectoria de infinito.\relax }}{46}{Posición $(x,y)$ del robot durante la ejecución de la trayectoria de infinito.\relax }{figure.caption.68}{}}
\@writefile{lof}{\contentsline {figure}{\numberline {5.15}{\ignorespaces Posici\IeC {\'o}n angular del robot durante la ejecuci\IeC {\'o}n de la trayectoria de infinito.\relax }}{46}{figure.caption.69}}
\newlabel{pp_inf_theta}{{\M@TitleReference {5.15}{Posici\IeC {\'o}n angular del robot durante la ejecuci\IeC {\'o}n de la trayectoria de infinito.\relax }}{46}{Posición angular del robot durante la ejecución de la trayectoria de infinito.\relax }{figure.caption.69}{}}
\@writefile{toc}{\contentsline {section}{\numberline {5.4}Resultado de la simulaci\IeC {\'o}n del algorito de evasi\IeC {\'o}n de obst\IeC {\'a}culos}{47}{section.5.4}}
\@writefile{toc}{\contentsline {subsection}{\numberline {5.4.1}Veh\IeC {\'\i }culo de Braintenberg 2a}{47}{subsection.5.4.1}}
\@writefile{toc}{\contentsline {subsubsection}{Algoritmo de Braintenberg en la pista 2}{47}{section*.70}}
\@writefile{lof}{\contentsline {figure}{\numberline {5.16}{\ignorespaces Posici\IeC {\'o}n $(x,y)$ del robot durante la ejecuci\IeC {\'o}n de la prueba de la pista 2.\relax }}{47}{figure.caption.71}}
\newlabel{tck2_btg_xy}{{\M@TitleReference {5.16}{Posici\IeC {\'o}n $(x,y)$ del robot durante la ejecuci\IeC {\'o}n de la prueba de la pista 2.\relax }}{47}{Posición $(x,y)$ del robot durante la ejecución de la prueba de la pista 2.\relax }{figure.caption.71}{}}
\@writefile{lof}{\contentsline {figure}{\numberline {5.17}{\ignorespaces Posici\IeC {\'o}n angular del robot durante la ejecuci\IeC {\'o}n de la prueba de la pista 2.\relax }}{48}{figure.caption.72}}
\newlabel{tck2_btg_theta}{{\M@TitleReference {5.17}{Posici\IeC {\'o}n angular del robot durante la ejecuci\IeC {\'o}n de la prueba de la pista 2.\relax }}{48}{Posición angular del robot durante la ejecución de la prueba de la pista 2.\relax }{figure.caption.72}{}}
\@writefile{lof}{\contentsline {figure}{\numberline {5.18}{\ignorespaces Posici\IeC {\'o}n $(x,y)$ del robot durante la ejecuci\IeC {\'o}n de la prueba marcada sobre la pista 2.\relax }}{48}{figure.caption.73}}
\newlabel{tck2_btg_xy_edit}{{\M@TitleReference {5.18}{Posici\IeC {\'o}n $(x,y)$ del robot durante la ejecuci\IeC {\'o}n de la prueba marcada sobre la pista 2.\relax }}{48}{Posición $(x,y)$ del robot durante la ejecución de la prueba marcada sobre la pista 2.\relax }{figure.caption.73}{}}
\@writefile{lot}{\contentsline {table}{\numberline {5.7}{\ignorespaces Tiempo de ejecuci\IeC {\'o}n del algoritmo de Braintenberg 2a para la pista 2.\relax }}{49}{table.caption.74}}
\newlabel{time:tck2_btg}{{\M@TitleReference {5.7}{Tiempo de ejecuci\IeC {\'o}n del algoritmo de Braintenberg 2a para la pista 2.\relax }}{49}{Tiempo de ejecución del algoritmo de Braintenberg 2a para la pista 2.\relax }{table.caption.74}{}}
\@writefile{toc}{\contentsline {subsubsection}{Algoritmo de Braintenberg en la pista 3}{49}{section*.75}}
\@writefile{lof}{\contentsline {figure}{\numberline {5.19}{\ignorespaces Posici\IeC {\'o}n $(x,y)$ del robot durante la ejecuci\IeC {\'o}n de la prueba de la pista 3.\relax }}{49}{figure.caption.76}}
\newlabel{neo_btg_xy}{{\M@TitleReference {5.19}{Posici\IeC {\'o}n $(x,y)$ del robot durante la ejecuci\IeC {\'o}n de la prueba de la pista 3.\relax }}{49}{Posición $(x,y)$ del robot durante la ejecución de la prueba de la pista 3.\relax }{figure.caption.76}{}}
\@writefile{lof}{\contentsline {figure}{\numberline {5.20}{\ignorespaces Posici\IeC {\'o}n $(x,y)$ del robot durante la ejecuci\IeC {\'o}n de la prueba marcada sobre la pista 3.\relax }}{50}{figure.caption.77}}
\newlabel{neo_btg_xy_edit}{{\M@TitleReference {5.20}{Posici\IeC {\'o}n $(x,y)$ del robot durante la ejecuci\IeC {\'o}n de la prueba marcada sobre la pista 3.\relax }}{50}{Posición $(x,y)$ del robot durante la ejecución de la prueba marcada sobre la pista 3.\relax }{figure.caption.77}{}}
\@writefile{lof}{\contentsline {figure}{\numberline {5.21}{\ignorespaces Posici\IeC {\'o}n angular del robot durante la ejecuci\IeC {\'o}n de la prueba de la pista 3.\relax }}{50}{figure.caption.78}}
\newlabel{neo_btg_theta}{{\M@TitleReference {5.21}{Posici\IeC {\'o}n angular del robot durante la ejecuci\IeC {\'o}n de la prueba de la pista 3.\relax }}{50}{Posición angular del robot durante la ejecución de la prueba de la pista 3.\relax }{figure.caption.78}{}}
\@writefile{lot}{\contentsline {table}{\numberline {5.8}{\ignorespaces Tiempo de ejecuci\IeC {\'o}n del algoritmo de Braintenberg 2a para la pista 3.\relax }}{51}{table.caption.79}}
\newlabel{time:neo_btg}{{\M@TitleReference {5.8}{Tiempo de ejecuci\IeC {\'o}n del algoritmo de Braintenberg 2a para la pista 3.\relax }}{51}{Tiempo de ejecución del algoritmo de Braintenberg 2a para la pista 3.\relax }{table.caption.79}{}}
\@writefile{toc}{\contentsline {section}{\numberline {5.5}Resumen de los resultados obtenidos}{51}{section.5.5}}
\@writefile{lot}{\contentsline {table}{\numberline {5.9}{\ignorespaces Tabla comparativa del desempe\IeC {\~n}o de los algoritmos para seguimiento de trayectoria.\relax }}{52}{table.caption.80}}
\newlabel{comp}{{\M@TitleReference {5.9}{Tabla comparativa del desempe\IeC {\~n}o de los algoritmos para seguimiento de trayectoria.\relax }}{52}{Tabla comparativa del desempeño de los algoritmos para seguimiento de trayectoria.\relax }{table.caption.80}{}}
\@writefile{lof}{\addvspace {10pt}}
\@writefile{lot}{\addvspace {10pt}}
\@writefile{toc}{\contentsline {chapter}{\chapternumberline {6}Conclusiones y recomendaciones}{53}{chapter.6}}
\newlabel{C:conclusiones}{{\M@TitleReference {6}{Conclusiones y recomendaciones}}{53}{Conclusiones y recomendaciones}{chapter.6}{}}
\@writefile{toc}{\contentsline {section}{\numberline {6.1}Conclusiones}{53}{section.6.1}}
\@writefile{toc}{\contentsline {section}{\numberline {6.2}Recomendaciones}{54}{section.6.2}}
\@writefile{toc}{\contentsline {section}{\numberline {6.3}Trabajos futuros}{54}{section.6.3}}
\@writefile{lof}{\addvspace {10pt}}
\@writefile{lot}{\addvspace {10pt}}
\@writefile{toc}{\contentsline {appendix}{\chapternumberline {A}Implementaci\IeC {\'o}n del algoritmo de Punto Descentralizado}{55}{appendix.Alph1}}
\@writefile{lof}{\addvspace {10pt}}
\@writefile{lot}{\addvspace {10pt}}
\@writefile{toc}{\contentsline {appendix}{\chapternumberline {B}Implementaci\IeC {\'o}n del algoritmo de Persecuci\IeC {\'o}n Pura}{65}{appendix.Alph2}}
\@writefile{lof}{\addvspace {10pt}}
\@writefile{lot}{\addvspace {10pt}}
\@writefile{toc}{\contentsline {appendix}{\chapternumberline {C}Implementaci\IeC {\'o}n del algoritmo de Braintenberg 2a}{77}{appendix.Alph3}}
\@writefile{lof}{\addvspace {10pt}}
\@writefile{lot}{\addvspace {10pt}}
\@writefile{toc}{\contentsline {appendix}{\chapternumberline {D}Implementaci\IeC {\'o}n de las pruebas para seguimiento de trayectoria}{87}{appendix.Alph4}}
\@writefile{toc}{\contentsline {section}{\numberline {D.1}Prueba de trayectoria cuadrada}{87}{section.Alph4.1}}
\@writefile{toc}{\contentsline {section}{\numberline {D.2}Prueba de trayectoria circular}{90}{section.Alph4.2}}
\@writefile{toc}{\contentsline {section}{\numberline {D.3}Prueba de trayectoria de infinito}{92}{section.Alph4.3}}
\@writefile{lof}{\addvspace {10pt}}
\@writefile{lot}{\addvspace {10pt}}
\@writefile{toc}{\contentsline {appendix}{\chapternumberline {E}Implementaci\IeC {\'o}n de la transformada de los puntos a un marco de referencia global}{97}{appendix.Alph5}}
\bibstyle{plainurl}
\bibdata{bibliografia/bibliografia.bib}
\bibcite{LandVehicles}{1}
\bibcite{Braitenberg}{2}
\bibcite{rotacion}{3}
\bibcite{PurePersuit_Craig}{4}
\bibcite{kinematicDifferential}{5}
\bibcite{navegacion1}{6}
\bibcite{ros2}{7}
\bibcite{gazebo1}{8}
\bibcite{ros6}{9}
\bibcite{ros5}{10}
\bibcite{ros4}{11}
\bibcite{ros3}{12}
\bibcite{gazebo3}{13}
\@writefile{toc}{\contentsline {chapter}{Bibliograf\'{\i }a}{101}{section*.82}}
\bibcite{ros1}{14}
\bibcite{gazebo2}{15}
\bibcite{S300}{16}
\bibcite{InDoorVehicles}{17}
\bibcite{sensores}{18}
\bibcite{neobotix1}{19}
\bibcite{neobotix2}{20}
\bibcite{neobotix3}{21}
\bibcite{PurePersuit_eqs}{22}
\bibcite{profeLeo}{23}
\bibcite{inproceedings}{24}
\bibcite{v2b}{25}
\bibcite{v3a}{26}
\bibcite{AutonomousMobileRobots}{27}
\bibcite{WorldRobots}{28}
\bibcite{PurePersuit_graph}{29}
\memsetcounter{lastsheet}{117}
\memsetcounter{lastpage}{103}
