\babel@toc {spanish}{}
\addvspace {10pt}
\addvspace {10pt}
\contentsline {figure}{\numberline {2.1}{\ignorespaces \IeC {\textquestiondown }C\IeC {\'o}mo se localiza un robot? \cite {AutonomousMobileRobots}\relax }}{5}{figure.caption.4}
\contentsline {figure}{\numberline {2.2}{\ignorespaces Diagrama de flujo de control para la navegaci\IeC {\'o}n de robots aut\IeC {\'o}nomos. \cite {AutonomousMobileRobots}\relax }}{6}{figure.caption.5}
\contentsline {figure}{\numberline {2.3}{\ignorespaces Diagrama de la cinem\IeC {\'a}tica de un robot diferencial. \cite {sensores}\relax }}{7}{figure.caption.6}
\contentsline {figure}{\numberline {2.4}{\ignorespaces (a) Rotar un punto a lo largo del eje $z$. (b) Rotar un punto a lo largo del eje $y$. (c) Rotar un punto a lo largo del eje $x$.\cite {rotacion}.\relax }}{8}{figure.caption.7}
\contentsline {figure}{\numberline {2.5}{\ignorespaces Algoritmo de persecuci\IeC {\'o}n pura. \cite {PurePersuit_graph}\relax }}{9}{figure.caption.8}
\contentsline {figure}{\numberline {2.6}{\ignorespaces Puntos de inter\IeC {\'e}s para el control por punto descentralizado. \cite {profeLeo}.\relax }}{11}{figure.caption.10}
\contentsline {figure}{\numberline {2.7}{\ignorespaces Diagrama de bloques para el algoritmo de control de punto descentralizado. \cite {profeLeo}\relax }}{12}{figure.caption.11}
\contentsline {figure}{\numberline {2.8}{\ignorespaces Veh\IeC {\'\i }culo 1 de Braintenberg.\relax }}{14}{figure.caption.14}
\contentsline {figure}{\numberline {2.9}{\ignorespaces Veh\IeC {\'\i }culo de Braintenberg 2a.\relax }}{15}{figure.caption.17}
\contentsline {figure}{\numberline {2.10}{\ignorespaces Veh\IeC {\'\i }culo de Braintenberg 2b. \cite {v2b}\relax }}{16}{figure.caption.19}
\contentsline {figure}{\numberline {2.11}{\ignorespaces Veh\IeC {\'\i }culo de Braintenberg 3a. \cite {v3a}\relax }}{17}{figure.caption.22}
\contentsline {figure}{\numberline {2.12}{\ignorespaces Veh\IeC {\'\i }culo de Braintenberg 3. \cite {Braitenberg}\relax }}{18}{figure.caption.24}
\addvspace {10pt}
\contentsline {figure}{\numberline {3.1}{\ignorespaces Funcionamiento de los conceptos b\IeC {\'a}sicos de ROS. \cite {ros4}\relax }}{20}{figure.caption.26}
\contentsline {figure}{\numberline {3.2}{\ignorespaces Interfaz gr\IeC {\'a}fica del software de simulaci\IeC {\'o}n Gazebo.\relax }}{22}{figure.caption.30}
\contentsline {figure}{\numberline {3.3}{\ignorespaces Diagrama de la interfaz del paquete gazebo\_ros\_pkgs. \cite {gazebo3}\relax }}{24}{figure.caption.31}
\contentsline {figure}{\numberline {3.4}{\ignorespaces Robot diferencial MP-500 dentro de la simulaci\IeC {\'o}n. \cite {neobotix2}\relax }}{25}{figure.caption.32}
\contentsline {figure}{\numberline {3.5}{\ignorespaces Medidas del robot diferencial MP-500. \cite {neobotix1}\relax }}{26}{figure.caption.33}
\contentsline {figure}{\numberline {3.6}{\ignorespaces Sensor l\IeC {\'a}ser S300 de Sick Sensor Intelligence. \cite {S300}\relax }}{26}{figure.caption.34}
\addvspace {10pt}
\contentsline {figure}{\numberline {4.1}{\ignorespaces Diagrama de clases de la implementaci\IeC {\'o}n del algoritmo de punto descentralizado.\relax }}{29}{figure.caption.36}
\contentsline {figure}{\numberline {4.2}{\ignorespaces Diagrama de nodos y t\IeC {\'o}picos de la implementaci\IeC {\'o}n del algoritmo de punto descentralizado.\relax }}{30}{figure.caption.37}
\contentsline {figure}{\numberline {4.3}{\ignorespaces Diagrama de clases de la implementaci\IeC {\'o}n del algoritmo de persecuci\IeC {\'o}n pura.\relax }}{30}{figure.caption.39}
\contentsline {figure}{\numberline {4.4}{\ignorespaces Diagrama de nodos y t\IeC {\'o}picos de la implementaci\IeC {\'o}n del algoritmo de persecuci\IeC {\'o}n pura.\relax }}{32}{figure.caption.40}
\contentsline {figure}{\numberline {4.5}{\ignorespaces Diagrama de nodos y t\IeC {\'o}picos de la implementaci\IeC {\'o}n del algoritmo de Braintneberg 2a.\relax }}{34}{figure.caption.42}
\addvspace {10pt}
\contentsline {figure}{\numberline {5.1}{\ignorespaces Pista 1 utilizada para la simulaci\IeC {\'o}n de los algoritmos de seguimiento de trayectorias.\relax }}{36}{figure.caption.43}
\contentsline {figure}{\numberline {5.2}{\ignorespaces Pista 2 utilizada para la simulaci\IeC {\'o}n del algoritmos de evasi\IeC {\'o}n de obst\IeC {\'a}culos.\relax }}{36}{figure.caption.44}
\contentsline {figure}{\numberline {5.3}{\ignorespaces Pista 3 utilizada para la simulaci\IeC {\'o}n del algoritmos de evasi\IeC {\'o}n de obst\IeC {\'a}culos.\relax }}{37}{figure.caption.45}
\contentsline {figure}{\numberline {5.4}{\ignorespaces Posici\IeC {\'o}n $(x,y)$ del robot durante la ejecuci\IeC {\'o}n de la trayectoria cuadrada.\relax }}{38}{figure.caption.47}
\contentsline {figure}{\numberline {5.5}{\ignorespaces Posici\IeC {\'o}n angular del robot durante la ejecuci\IeC {\'o}n de la trayectoria cuadrada.\relax }}{38}{figure.caption.48}
\contentsline {figure}{\numberline {5.6}{\ignorespaces Posici\IeC {\'o}n $(x,y)$ del robot durante la ejecuci\IeC {\'o}n de la trayectoria circular.\relax }}{39}{figure.caption.51}
\contentsline {figure}{\numberline {5.7}{\ignorespaces Posici\IeC {\'o}n angular del robot durante la ejecuci\IeC {\'o}n de la trayectoria circular.\relax }}{40}{figure.caption.52}
\contentsline {figure}{\numberline {5.8}{\ignorespaces Posici\IeC {\'o}n $(x,y)$ del robot durante la ejecuci\IeC {\'o}n de la trayectoria de infinito.\relax }}{41}{figure.caption.55}
\contentsline {figure}{\numberline {5.9}{\ignorespaces Posici\IeC {\'o}n angular del robot durante la ejecuci\IeC {\'o}n de la trayectoria de infinito.\relax }}{41}{figure.caption.56}
\contentsline {figure}{\numberline {5.10}{\ignorespaces Posici\IeC {\'o}n $(x,y)$ del robot durante la ejecuci\IeC {\'o}n de la trayectoria cuadrada.\relax }}{43}{figure.caption.60}
\contentsline {figure}{\numberline {5.11}{\ignorespaces Posici\IeC {\'o}n angular del robot durante la ejecuci\IeC {\'o}n de la trayectoria cuadrada.\relax }}{43}{figure.caption.61}
\contentsline {figure}{\numberline {5.12}{\ignorespaces Posici\IeC {\'o}n $(x,y)$ del robot durante la ejecuci\IeC {\'o}n de la trayectoria circular.\relax }}{44}{figure.caption.64}
\contentsline {figure}{\numberline {5.13}{\ignorespaces Posici\IeC {\'o}n angular del robot durante la ejecuci\IeC {\'o}n de la trayectoria circular.\relax }}{45}{figure.caption.65}
\contentsline {figure}{\numberline {5.14}{\ignorespaces Posici\IeC {\'o}n $(x,y)$ del robot durante la ejecuci\IeC {\'o}n de la trayectoria de infinito.\relax }}{46}{figure.caption.68}
\contentsline {figure}{\numberline {5.15}{\ignorespaces Posici\IeC {\'o}n angular del robot durante la ejecuci\IeC {\'o}n de la trayectoria de infinito.\relax }}{46}{figure.caption.69}
\contentsline {figure}{\numberline {5.16}{\ignorespaces Posici\IeC {\'o}n $(x,y)$ del robot durante la ejecuci\IeC {\'o}n de la prueba de la pista 2.\relax }}{47}{figure.caption.71}
\contentsline {figure}{\numberline {5.17}{\ignorespaces Posici\IeC {\'o}n angular del robot durante la ejecuci\IeC {\'o}n de la prueba de la pista 2.\relax }}{48}{figure.caption.72}
\contentsline {figure}{\numberline {5.18}{\ignorespaces Posici\IeC {\'o}n $(x,y)$ del robot durante la ejecuci\IeC {\'o}n de la prueba marcada sobre la pista 2.\relax }}{48}{figure.caption.73}
\contentsline {figure}{\numberline {5.19}{\ignorespaces Posici\IeC {\'o}n $(x,y)$ del robot durante la ejecuci\IeC {\'o}n de la prueba de la pista 3.\relax }}{49}{figure.caption.76}
\contentsline {figure}{\numberline {5.20}{\ignorespaces Posici\IeC {\'o}n $(x,y)$ del robot durante la ejecuci\IeC {\'o}n de la prueba marcada sobre la pista 3.\relax }}{50}{figure.caption.77}
\contentsline {figure}{\numberline {5.21}{\ignorespaces Posici\IeC {\'o}n angular del robot durante la ejecuci\IeC {\'o}n de la prueba de la pista 3.\relax }}{50}{figure.caption.78}
\addvspace {10pt}
\addvspace {10pt}
\addvspace {10pt}
\addvspace {10pt}
\addvspace {10pt}
\addvspace {10pt}
