\babel@toc {spanish}{}
\addvspace {10pt}
\addvspace {10pt}
\addvspace {10pt}
\addvspace {10pt}
\contentsline {table}{\numberline {4.1}{\ignorespaces Implementaci\IeC {\'o}n del algoritmo de punto descentralizado\relax }}{28}{table.caption.35}
\contentsline {table}{\numberline {4.2}{\ignorespaces Implementaci\IeC {\'o}n del algoritmo de persecuci\IeC {\'o}n pura\relax }}{31}{table.caption.38}
\contentsline {table}{\numberline {4.3}{\ignorespaces Implementaci\IeC {\'o}n del algoritmo de Braintenber\relax }}{33}{table.caption.41}
\addvspace {10pt}
\contentsline {table}{\numberline {5.1}{\ignorespaces Desempe\IeC {\~n}o del algoritmo de punto descentralizado siguiendo una trayectoria cuadrada.\relax }}{39}{table.caption.49}
\contentsline {table}{\numberline {5.2}{\ignorespaces Desempe\IeC {\~n}o del algoritmo de punto descentralizado siguiendo una trayectoria circular.\relax }}{40}{table.caption.53}
\contentsline {table}{\numberline {5.3}{\ignorespaces Desempe\IeC {\~n}o del algoritmo de punto descentralizado siguiendo una trayectoria de infinito.\relax }}{42}{table.caption.57}
\contentsline {table}{\numberline {5.4}{\ignorespaces Desempe\IeC {\~n}o del algoritmo de persecuci\IeC {\'o}n pura siguiendo una trayectoria de cuadrada.\relax }}{42}{table.caption.59}
\contentsline {table}{\numberline {5.5}{\ignorespaces Desempe\IeC {\~n}o del algoritmo de persecuci\IeC {\'o}n pura siguiendo una trayectoria de circular.\relax }}{44}{table.caption.63}
\contentsline {table}{\numberline {5.6}{\ignorespaces Desempe\IeC {\~n}o del algoritmo de persecuci\IeC {\'o}n pura siguiendo una trayectoria de infinito.\relax }}{45}{table.caption.67}
\contentsline {table}{\numberline {5.7}{\ignorespaces Tiempo de ejecuci\IeC {\'o}n del algoritmo de Braintenberg 2a para la pista 2.\relax }}{49}{table.caption.74}
\contentsline {table}{\numberline {5.8}{\ignorespaces Tiempo de ejecuci\IeC {\'o}n del algoritmo de Braintenberg 2a para la pista 3.\relax }}{51}{table.caption.79}
\contentsline {table}{\numberline {5.9}{\ignorespaces Tabla comparativa del desempe\IeC {\~n}o de los algoritmos para seguimiento de trayectoria.\relax }}{52}{table.caption.80}
\addvspace {10pt}
\addvspace {10pt}
\addvspace {10pt}
\addvspace {10pt}
\addvspace {10pt}
\addvspace {10pt}
